test_run_dir/I2C_HARNESS_TEST/i2cHarness.vcd
$date
2022-04-30T11:18+0000
$end
$version
0.2
$end
$comment

$end
$timescale 1ns  $end
$scope module i2cHarness $end
 $var wire 1 & io_request_bits_isWrite $end
 $var wire 32 < io_request_bits_addrRequest $end
 $var wire 1 G io_i2c_sda_in $end
 $var wire 1 M io_request_valid $end
 $var wire 1 O io_response_bits_error $end
 $var wire 1 X i2c_wrapper $end
 $var wire 32 Z io_request_bits_dataRequest $end
 $var wire 1 "' io_response_ready $end
 $var wire 4 "/ io_request_bits_activeByteLane $end
 $var wire 1 "G io_i2c_scl $end
 $var wire 1 "Q clock $end
 $var wire 1 "_ deviceAdapter $end
 $var wire 1 "d io_request_ready $end
 $var wire 1 #1 io_response_valid $end
 $var wire 1 #2 io_i2c_intr $end
 $var wire 1 #4 hostAdapter $end
 $var wire 1 #7 reset $end
 $var wire 32 #@ io_response_bits_dataResponse $end
 $var wire 1 #L io_i2c_sda $end
  $scope module hostAdapter $end
   $var wire 32 " _GEN_13 $end
   $var wire 1 - _GEN_28 $end
   $var wire 1 0 _GEN_5 $end
   $var wire 32 4 io_reqIn_bits_dataRequest $end
   $var wire 1 = clock $end
   $var wire 1 ? io_wbMasterTransmitter_bits_stb $end
   $var wire 1 @ io_wbMasterTransmitter_valid $end
   $var wire 1 B io_rspOut_valid $end
   $var wire 1 C startWBTransaction $end
   $var wire 1 \ _GEN_4 $end
   $var wire 1 ^ _GEN_27 $end
   $var wire 32 _ io_wbMasterTransmitter_bits_dat $end
   $var wire 1 ` io_reqIn_bits_isWrite $end
   $var wire 1 d _GEN_33 $end
   $var wire 1 e errReg $end
   $var wire 32 j _GEN_7 $end
   $var wire 1 q _stateReg_T $end
   $var wire 1 s io_rspOut_bits_error $end
   $var wire 32 t io_rspOut_bits_dataResponse $end
   $var wire 1 ~ _GEN_24 $end
   $var wire 1 "$ cycReg $end
   $var wire 1 "& _GEN_1 $end
   $var wire 1 ") _GEN_30 $end
   $var wire 1 "- _GEN_12 $end
   $var wire 1 "1 io_wbMasterTransmitter_bits_cyc $end
   $var wire 1 "8 stbReg $end
   $var wire 1 "< stateReg $end
   $var wire 1 "? io_reqIn_ready $end
   $var wire 1 "F _GEN_9 $end
   $var wire 1 "I _GEN_23 $end
   $var wire 1 "J weReg $end
   $var wire 1 "U _GEN_11 $end
   $var wire 1 "V reset $end
   $var wire 1 "W _GEN_3 $end
   $var wire 32 "Z _GEN_26 $end
   $var wire 1 "[ _GEN_32 $end
   $var wire 1 "^ io_wbMasterTransmitter_ready $end
   $var wire 1 "b _GEN_29 $end
   $var wire 32 "f _GEN_14 $end
   $var wire 32 "g _GEN_6 $end
   $var wire 32 "h datReg $end
   $var wire 32 "i io_wbSlaveReceiver_bits_dat $end
   $var wire 1 "s _GEN_0 $end
   $var wire 32 "t io_reqIn_bits_addrRequest $end
   $var wire 1 "y readyReg $end
   $var wire 1 #! io_wbSlaveReceiver_bits_err $end
   $var wire 1 #% respReg $end
   $var wire 32 #( io_wbMasterTransmitter_bits_adr $end
   $var wire 1 #* io_wbMasterTransmitter_bits_we $end
   $var wire 32 #0 adrReg $end
   $var wire 32 #= _GEN_22 $end
   $var wire 1 #? io_wbSlaveReceiver_bits_ack $end
   $var wire 1 #A _GEN_10 $end
   $var wire 1 #C _GEN_2 $end
   $var wire 1 #G _GEN_25 $end
   $var wire 1 #J io_wbSlaveReceiver_ready $end
   $var wire 1 #N _GEN_31 $end
   $var wire 1 #P io_reqIn_valid $end
   $var wire 32 #Q dataReg $end
  $upscope $end
  $scope module deviceAdapter $end
   $var wire 1 * io_reqOut_valid $end
   $var wire 32 + io_reqOut_bits_dataRequest $end
   $var wire 1 / io_wbMasterReceiver_bits_we $end
   $var wire 32 1 io_wbSlaveTransmitter_bits_dat $end
   $var wire 1 H io_rspIn_bits_error $end
   $var wire 1 I io_wbMasterReceiver_bits_stb $end
   $var wire 1 R io_wbSlaveTransmitter_ready $end
   $var wire 1 S io_wbSlaveTransmitter_bits_err $end
   $var wire 32 a io_wbMasterReceiver_bits_dat $end
   $var wire 1 u _GEN_5 $end
   $var wire 1 x io_wbMasterReceiver_valid $end
   $var wire 1 "! io_wbSlaveTransmitter_bits_ack $end
   $var wire 1 ". io_wbMasterReceiver_bits_cyc $end
   $var wire 1 "9 _GEN_19 $end
   $var wire 1 "N io_wbMasterReceiver_ready $end
   $var wire 1 "S io_reqOut_bits_isWrite $end
   $var wire 32 "\ io_rspIn_bits_dataResponse $end
   $var wire 1 "c _GEN_18 $end
   $var wire 1 "r io_rspIn_valid $end
   $var wire 32 "v io_reqOut_bits_addrRequest $end
   $var wire 1 "{ _T $end
   $var wire 32 "~ io_wbMasterReceiver_bits_adr $end
  $upscope $end
  $scope module i2c_wrapper $end
   $var wire 1 ( clock $end
   $var wire 1 ) write_register $end
   $var wire 1 , _read_register_T_1 $end
   $var wire 1 7 io_cio_i2c_scl $end
   $var wire 1 9 io_response_valid_REG $end
   $var wire 1 > io_response_bits_error_REG $end
   $var wire 1 D io_request_valid $end
   $var wire 32 N io_response_bits_dataResponse $end
   $var wire 32 Q io_response_bits_dataResponse_REG $end
   $var wire 1 f i2c_top $end
   $var wire 8 k addr_reg $end
   $var wire 1 p io_cio_i2c_sda $end
   $var wire 1 r io_cio_i2c_intr $end
   $var wire 32 z io_request_bits_dataRequest $end
   $var wire 1 "* io_request_bits_isWrite $end
   $var wire 1 "+ io_request_ready $end
   $var wire 1 ": read_register $end
   $var wire 1 "B reset $end
   $var wire 7 "M _addr_reg_T $end
   $var wire 1 #$ io_response_valid $end
   $var wire 1 #+ _write_register_T $end
   $var wire 1 #< io_response_bits_error $end
   $var wire 32 #O io_request_bits_addrRequest $end
    $scope module i2c_top $end
     $var wire 8 ! _GEN_3 $end
     $var wire 1 # i2c_master $end
     $var wire 7 $ _addr_slave_addr_T $end
     $var wire 8 % _GEN_21 $end
     $var wire 8 ' _GEN_15 $end
     $var wire 1 . _addr_start_bit_T $end
     $var wire 1 2 io_scl $end
     $var wire 8 6 _addr_data_T $end
     $var wire 1 8 io_ren $end
     $var wire 1 L io_we $end
     $var wire 7 W _GEN_2 $end
     $var wire 1 Y addr_start_bit $end
     $var wire 7 b _GEN_20 $end
     $var wire 1 i _GEN_5 $end
     $var wire 1 l _GEN_23 $end
     $var wire 1 m _GEN_17 $end
     $var wire 1 w reset $end
     $var wire 8 | _GEN_26 $end
     $var wire 8 "" _GEN_8 $end
     $var wire 1 "% _T $end
     $var wire 1 "( _GEN_11 $end
     $var wire 7 "3 _GEN_14 $end
     $var wire 1 "5 io_sda $end
     $var wire 1 "6 io_intr $end
     $var wire 1 "@ addr_sda_in $end
     $var wire 7 "O _GEN_13 $end
     $var wire 1 "P _GEN_1 $end
     $var wire 1 "R _GEN_28 $end
     $var wire 1 "X addr_read_write_bit $end
     $var wire 32 "e io_wdata $end
     $var wire 1 "j _GEN_22 $end
     $var wire 1 "k _GEN_4 $end
     $var wire 1 "m _GEN_16 $end
     $var wire 1 "o _GEN_10 $end
     $var wire 1 "p _GEN_19 $end
     $var wire 7 "w _GEN_7 $end
     $var wire 7 "z _GEN_25 $end
     $var wire 7 #" io_addr $end
     $var wire 8 #- addr_data $end
     $var wire 7 #. addr_slave_addr $end
     $var wire 1 #3 _GEN_6 $end
     $var wire 1 #5 _GEN_18 $end
     $var wire 1 #: _GEN_24 $end
     $var wire 1 #B _GEN_0 $end
     $var wire 1 #D _GEN_12 $end
     $var wire 1 #E _GEN_27 $end
     $var wire 8 #H _GEN_9 $end
     $var wire 1 #M clock $end
      $scope module i2c_master $end
       $var wire 1 3 i2c_scl_enable $end
       $var wire 1 5 _GEN_20 $end
       $var wire 3 : _GEN_4 $end
       $var wire 1 ; io_i2c_intr $end
       $var wire 15 A _GEN_7 $end
       $var wire 1 E _io_i2c_sda_T_1 $end
       $var wire 7 F saved_addr $end
       $var wire 7 J _io_i2c_sda_T $end
       $var wire 7 K _GEN_58 $end
       $var wire 15 P count $end
       $var wire 1 T _GEN_52 $end
       $var wire 1 U _GEN_1 $end
       $var wire 7 V _GEN_46 $end
       $var wire 3 [ _GEN_28 $end
       $var wire 3 ] _GEN_61 $end
       $var wire 1 c io_i2c_sda $end
       $var wire 3 g _GEN_55 $end
       $var wire 1 h reset $end
       $var wire 15 n _GEN_43 $end
       $var wire 15 o _GEN_37 $end
       $var wire 1 v _GEN_16 $end
       $var wire 1 y io_read_write $end
       $var wire 15 { _GEN_25 $end
       $var wire 1 } _io_i2c_sda_T_3 $end
       $var wire 3 "# _GEN_19 $end
       $var wire 15 ", _GEN_60 $end
       $var wire 7 "0 io_addr $end
       $var wire 16 "2 _count_T $end
       $var wire 1 "4 _GEN_63 $end
       $var wire 1 "7 intr_done $end
       $var wire 3 "; _GEN_6 $end
       $var wire 3 "= _GEN_42 $end
       $var wire 8 "> state $end
       $var wire 3 "A _GEN_24 $end
       $var wire 15 "C _GEN_51 $end
       $var wire 1 "D _GEN_45 $end
       $var wire 1 "E _GEN_39 $end
       $var wire 3 "H _GEN_9 $end
       $var wire 1 "K _GEN_0 $end
       $var wire 7 "L _GEN_66 $end
       $var wire 1 "T _GEN_33 $end
       $var wire 1 "Y _GEN_54 $end
       $var wire 1 "] _GEN_27 $end
       $var wire 1 "` _GEN_12 $end
       $var wire 1 "a _GEN_21 $end
       $var wire 3 "l _GEN_36 $end
       $var wire 15 "n _count_T_1 $end
       $var wire 1 "q clock $end
       $var wire 8 "u _io_i2c_sda_T_2 $end
       $var wire 1 "x clk $end
       $var wire 1 "| io_start $end
       $var wire 3 "} _GEN_2 $end
       $var wire 15 ## _GEN_68 $end
       $var wire 1 #& _io_i2c_scl_T_1 $end
       $var wire 1 #' _GEN_53 $end
       $var wire 15 #) _GEN_29 $end
       $var wire 1 #, _io_i2c_scl_T $end
       $var wire 15 #/ _GEN_5 $end
       $var wire 1 #6 _GEN_38 $end
       $var wire 8 #8 io_data $end
       $var wire 1 #9 _GEN_44 $end
       $var wire 1 #; io_i2c_sda_in $end
       $var wire 3 #> _GEN_50 $end
       $var wire 1 #F _GEN_32 $end
       $var wire 1 #I _GEN_26 $end
       $var wire 1 #K io_i2c_scl $end
      $upscope $end
    $upscope $end
  $upscope $end
  $scope module i2c_wrapper.i2c_top $end
  $upscope $end
  $scope module i2c_wrapper.i2c_top.i2c_master $end
  $upscope $end
$upscope $end
$enddefinitions $end
$dumpvars
0"c
0#D
0R
0=
0"1
0"P
b0000000 "w
0#1
b000000000000000 "n
0m
b00000000000000000000000000000000 Q
b00000000 #-
0~
b00000000 ""
0"r
0L
0"@
0#!
0D
0/
b00000000000000000000000000000000 "\
b00000000000000000000000000000000 #(
b00000000000000000000000000000000 #=
0r
0"Q
0#2
0H
0@
0"<
b0000000 J
b0000000 "3
b000 ]
0#M
b000 ";
0"d
0#E
0p
0>
b00000000 |
b00000000 #8
b000000000000000 "C
0l
0"`
0"K
0#,
0O
0#$
0#A
0".
b00000000000000000000000000000000 "g
b000000000000000 A
b00000000 !
0`
0"?
0"*
0?
0"o
0#P
b00000000000000000000000000000000 t
b00000000000000000000000000000000 _
b00000000000000000000000000000000 "v
b000000000000000 P
0;
b0000 "/
0"k
0#L
0"9
b0000000 "0
0"_
b00000000 "u
09
0"-
b00000000000000000000000000000000 "f
b0000000 #"
0-
0"]
b000 g
0"Y
0#:
b000 "A
0Y
b00000000000000000000000000000000 "i
b0000000 F
0"{
b000000000000000 ",
0U
0"I
0#*
0M
08
b00000000000000000000000000000000 N
1"N
0#
b00000000000000000000000000000000 "e
b0000000 W
b00000000 '
0"y
0}
0h
0"q
0"G
b00000000000000000000000000000000 a
b000 "H
b000000000000000 o
b00000000000000000000000000000000 z
0y
0"X
0#9
0\
0G
0"m
0"&
0#N
b00000000000000000000000000000000 +
b00000000000000000000000000000000 "t
b00000000000000000000000000000000 #@
0*
b0000000 "O
b00000000 6
b000 "#
0X
0"7
0C
b00000000000000000000000000000000 <
0&
b00000000000000000000000000000000 #Q
b0000000 b
0"|
b000000000000000 ##
0"J
0#+
b0000000 V
b0000000 $
b000 "l
0"x
0"[
0"F
0#'
0#<
05
0")
b000000000000000 n
b00000000 k
0x
0":
0)
0v
0"j
0#K
0"U
0#6
b00000000000000000000000000000000 Z
0"8
b0000000 "L
b000 "=
0#G
0"4
b0000000 "z
0f
0#;
0"E
0#&
0I
0"(
b00000000000000000000000000000000 "~
b000 :
b000000000000000 #/
0w
0"V
0#7
0E
00
0"$
0(
b0000000000000000 "2
b0000000 "M
b0000000 #.
b000 #>
0u
0"T
0#5
b0000000 K
b000000000000000 #)
0q
0#F
b00000000000000000000000000000000 j
0i
0T
07
b00000000000000000000000000000000 #0
0"a
0#B
0e
0"D
0#%
b00000000000000000000000000000000 4
0"'
b00000000000000000000000000000000 "h
03
b000 "}
0c
0"W
0"B
0"%
b00000000 #H
0"p
0#I
0"S
0#4
0B
0"6
0"!
b000000000000000 {
b00000000000000000000000000000000 "Z
b00000000 ">
1#J
0S
b00000000000000000000000000000000 "
b00000000 %
0d
b000 [
02
1"+
0"b
0#C
0.
0"s
0"^
0#?
b00000000000000000000000000000000 1
0s
0^
0"R
0#3
0,
0"5
b00000000000000000000000000000000 #O
$end
#0
1"^
1R
1"B
1h
1"%
b101 ";
b111111111111111 "n
17
1c
1"T
12
1#K
1#L
1#7
1"V
b000000000000111 A
1,
b1111111111111111 "2
1v
1w
1"5
1p
1#,
1"a
1"D
1#&
1"E
1#'
1"G
b011 :
1"]
b110 "H
#1
13
b111 ";
1"&
1i
07
1#;
1"R
1"q
1"?
02
0#K
1#M
b000000000000000 A
1"d
1"Q
1=
1(
0#,
1#B
0#&
1"x
1"(
1"y
1l
0"G
1m
1"@
1"s
#6
1`
0"B
0"Q
1&
0h
0w
0=
0(
17
0"q
1#&
0"x
12
1#K
1"G
0#7
0"V
0#M
#11
03
1"q
0#&
1"x
1"Q
1=
1(
1#,
1#M
#16
b00000000000000000000000000000100 <
b00000000000000000000000000000100 "t
0"q
1#&
0"x
0"Q
0=
0(
0#M
#21
1"q
0#&
1"x
1"Q
1=
1(
1#M
#26
0"q
b00000000000000000000000001001110 4
1#&
0"x
0"Q
b00000000000000000000000001001110 Z
0=
0(
0#M
#31
1"q
0#&
1"x
1"Q
1=
1(
1#M
#36
1"W
b00000000000000000000000001001110 "f
0"Q
1#G
b00000000000000000000000000000100 "g
0"&
0=
0(
1"-
1#P
b00000000000000000000000001001110 j
1#A
1M
1\
10
1#C
0"q
b00000000000000000000000000000100 "
1"b
1#&
0"x
1"F
1"U
0#M
0"s
#41
b0000100 #"
1"$
b00000000000000000000000000000100 "v
b01001110 6
b00000000000000000000000000000100 #O
b00000000000000000000000001001110 a
1L
1/
b1001110 b
1"S
1"q
0"?
b00000000000000000000000001001110 z
1*
b0000100 "M
1"8
b00000000000000000000000001001110 +
1I
1#M
0,
b00000000000000000000000001001110 _
0"d
b00000000000000000000000000000100 #0
b00000000000000000000000001001110 "e
1C
b1001110 "3
1"Q
1#*
1D
1"J
1x
b00000000000000000000000001001110 "h
1=
1(
1#+
b00000000000000000000000000000100 "~
1".
1)
1?
0#&
1"x
1@
b00000100 k
0"y
1"1
b1001110 $
b00000000000000000000000000000100 #(
b1001110 "z
1"*
1"{
#46
0"q
1#&
0"x
0"Q
0=
0(
0#P
0#M
0M
#51
1#?
b00000000000000000000000001001110 Q
1"Q
1#$
1=
1(
b00000000000000000000000001001110 "Z
1q
b00000000000000000000000001001110 N
0"b
1"q
b00000000000000000000000001001110 1
0#&
b1001110 "0
1"x
b00000000000000000000000001001110 "i
1"c
1"!
1"[
1d
19
b1001110 #.
b00000000000000000000000001001110 "\
1")
1^
1"r
1#M
#56
b00000000000000000000000000001000 <
b00000000000000000000000000001000 "t
0"q
1#&
0"x
0"Q
0=
0(
0#M
#61
b00000000000000000000000001001110 #@
b00000000000000000000000000000000 "v
b00000000 6
b00000000000000000000000000000000 #O
1"<
b00000000000000000000000001001110 #Q
0"S
0"!
0d
0*
b0000000 "M
0I
1#M
1,
0C
0#G
1"Q
0#*
1"I
1=
1(
0".
0q
0?
0#C
0#&
b00000000 k
b0000000 $
b00000000000000000000000001001110 #=
b00000000000000000000000000000000 #(
0"*
0"{
0#?
b0000000 #"
1"&
b00000000000000000000000000000000 a
0L
0/
1"q
b00000000000000000000000000000000 z
b00000000000000000000000000000000 +
b00000000000000000000000001001110 t
b00000000000000000000000000000000 _
1B
b00000000000000000000000000000000 "e
1#1
b0000000 "3
0D
0#+
0x
b00000000000000000000000000000000 "~
0)
1#%
0@
1"x
0"[
0"F
0"1
0")
#66
0"q
b00000000000000000000000000000000 4
1#&
0"x
0"Q
b00000000000000000000000000000000 Z
0=
0(
0#M
#71
0B
b00000000000000000000000000000000 Q
0#1
1"Q
0"I
0#$
1=
1(
0"<
0#%
b00000000000000000000000000000000 N
1"q
b00000000000000000000000000000000 1
0#&
1"x
b00000000000000000000000000000000 "i
1"?
0"c
1"y
09
b00000000000000000000000000000000 "\
0^
0"r
1#M
1"d
1"s
#76
b00000000000000000000000000000000 "f
0"Q
1#G
b00000000000000000000000000001000 "g
0"&
0=
0(
1#P
b00000000000000000000000000000000 j
1M
1#C
0"q
b00000000000000000000000000001000 "
1"b
1#&
0"x
1"F
0#M
0"s
#81
b0001000 #"
b00000000000000000000000000001000 "v
b00000000000000000000000000001000 #O
1L
1/
1"S
1"q
0"?
1*
b0001000 "M
1I
1#M
0,
0"d
b1001110 "O
b00000000000000000000000000001000 #0
1C
b1001110 "3
1"Q
1#*
1D
1#+
1x
b00000000000000000000000000000000 "h
1=
1(
b00000000000000000000000000001000 "~
1".
1)
1?
b1001110 "w
0#&
1"x
1@
b00001000 k
0"y
1"1
b00000000000000000000000000001000 #(
1"*
1"{
#86
0"q
1#&
0"x
0"Q
0=
0(
0#P
0#M
0M
#91
1#?
1"Q
1#$
1=
1(
b00000000000000000000000000000000 "Z
1q
0"b
1"q
0#&
1"x
1"c
1"!
1d
1"[
19
1")
1^
1"r
1#M
#96
b00000000000000000000000000000000 <
b00000000000000000000000000000000 "t
0"q
1#&
0"x
0"Q
0=
0(
0#M
#101
0#?
b0000000 #"
b00000000000000000000000000000000 #@
b00000000000000000000000000000000 "v
1"&
b00000000000000000000000000000000 #O
0L
1"<
0/
b00000000000000000000000000000000 #Q
0"S
1"q
0"!
0d
0*
b0000000 "M
0I
1#M
b00000000000000000000000000000000 t
1,
b0000000 "O
1B
1#1
0C
b0000000 "3
0#G
1"Q
0#*
0D
1"I
0#+
0x
1=
1(
b00000000000000000000000000000000 "~
0".
0)
0q
1#%
b0000000 "w
0?
0#C
0#&
1"x
0@
b00000000 k
0"[
0"F
0"1
0")
b00000000000000000000000000000000 #=
b00000000000000000000000000000000 #(
0"*
0"{
#106
0"q
b00000000000000000000000000000001 4
1#&
0"x
0"Q
b00000000000000000000000000000001 Z
0=
0(
0#M
#111
0B
0#1
1"Q
0"I
0#$
1=
1(
0"<
0#%
1"q
0#&
1"x
1"?
0"c
1"y
09
0^
0"r
1#M
1"d
1"s
#116
b00000000000000000000000000000001 "f
0"Q
1#G
b00000000000000000000000000000000 "g
0"&
0=
0(
1#P
b00000000000000000000000000000001 j
1M
1#C
0"q
b00000000000000000000000000000000 "
1"b
1#&
0"x
1"F
0#M
0"s
#121
b00000001 6
1#:
b00000000000000000000000000000001 a
1L
1/
1"p
1"S
1"q
0"?
b00000000000000000000000000000001 z
1*
b00000000000000000000000000000001 +
1I
1#M
0,
b00000000000000000000000000000001 _
b00000000000000000000000000000000 #0
0"d
b00000000000000000000000000000001 "e
1C
1.
1"Q
1#*
1D
1#+
1x
b00000000000000000000000000000001 "h
1=
1(
1".
1)
1?
0#&
1"x
1@
0"y
1"1
b0000001 $
1"*
1"{
#126
0"q
1#&
0"x
0"Q
0=
0(
0#P
0#M
0M
#131
1#?
b00000000000000000000000000000001 Q
b001 g
1#$
b00000000000000000000000000000001 "Z
b00000000000000000000000000000001 N
1"q
b00000000000000000000000000000001 1
b00000000000000000000000000000001 "i
1"!
1d
b001 ]
1^
1#M
1"Q
1Y
1"|
b001 "}
1=
1(
1q
0"b
0#&
1"x
1"c
1"[
19
1")
b00000000000000000000000000000001 "\
1"r
#136
0"q
1#&
0"x
0"Q
0=
0(
0#M
#141
b00000000000000000000000000000001 #@
b000000000000110 ##
b1001110 K
b00000000 6
1"<
b00000000000000000000000000000001 #Q
0"p
0"S
b00000001 ">
0"!
0d
0*
0I
1#M
1,
0C
0.
0#G
1"Q
0#*
1"I
1=
1(
0".
0q
0?
0#C
0#&
b1001110 V
b0000000 $
b00000000000000000000000000000001 #=
0"*
0"{
0#?
b000000000000110 ",
b010 g
b000000000000110 "C
1"&
b00000000000000000000000000000000 a
0L
0/
0c
1"q
b00000000000000000000000000000000 z
b010 ]
0#L
b00000000000000000000000000000000 +
b00000000000000000000000000000001 t
b00000000000000000000000000000000 _
1B
b00000000000000000000000000000000 "e
1#1
0D
0#+
0"5
0x
0p
0)
b1001110 "L
0"D
1#%
0@
1"x
0"[
0#'
0"1
0"F
0")
b010 #>
#146
0"q
1#&
0"x
0"Q
0=
0(
0#M
#151
1"s
b00000000000000000000000000000000 Q
b000000000000101 ",
b000000000000101 ##
b0000001 J
0#$
b000000000000101 "C
b000000000000101 "n
0"<
b010 "=
1c
b00000000000000000000000000000000 N
b00000010 ">
1"q
b1001110 F
b00000000000000000000000000000000 1
b00000000000000000000000000000000 "i
1"?
b000000000000110 {
1#L
0^
b000000000000101 #/
1#M
b000000000000110 A
1"d
0B
b0000000000000101 "2
0#1
1"Q
0"I
b000000000000110 o
1E
1"5
1=
1(
1p
1"K
1"D
0#%
1U
0#&
1"x
0"c
1#'
1"y
09
b00000000000000000000000000000000 "\
b010 :
0"r
b101 "H
b000000000000110 #)
b000000000000110 P
b000000000000101 n
#156
0"q
1#&
0"x
0"Q
0=
0(
0#M
#161
13
b000000000000100 ",
b000000000000100 ##
b0000010 J
b000000000000100 "C
b000000000000100 "n
07
0c
1"q
02
0#K
b000000000000101 {
0#L
b000000000000100 #/
1#M
b000000000000101 A
b0000000000000100 "2
1"Q
b000000000000101 o
0E
0"5
1=
1(
0p
0#,
0"D
0#&
1"x
0"E
0#'
0"G
b000000000000101 #)
b000000000000101 P
b000000000000100 n
#166
0"q
1#&
0"x
0"Q
12
1#K
1"G
0=
0(
17
0#M
#171
b0000000000000011 "2
b000000000000011 ",
b000000000000011 ##
1"Q
b0000100 J
b000000000000011 "C
b000000000000100 o
b000000000000011 "n
1=
1(
07
1"q
0#&
1"x
02
0#K
b000000000000100 {
0"G
b000000000000011 #/
1#M
b000000000000100 A
b000000000000100 P
b000000000000100 #)
b000000000000011 n
#176
0"q
1#&
0"x
0"Q
12
1#K
1"G
0=
0(
17
0#M
#181
b000000000000010 ",
b000000000000010 ##
b0001001 J
b000000000000010 "C
b000000000000010 "n
07
1c
1"q
02
0#K
b000000000000011 {
1#L
b000000000000010 #/
1#M
b000000000000011 A
b0000000000000010 "2
1"Q
b000000000000011 o
1E
1"5
1=
1(
1p
1"D
0#&
1"x
1"E
1#'
0"G
b000000000000011 #)
b000000000000011 P
b000000000000010 n
#186
0"q
1#&
0"x
0"Q
12
1#K
1"G
0=
0(
17
0#M
#191
b0000000000000001 "2
b000000000000001 ",
b000000000000001 ##
1"Q
b0010011 J
b000000000000001 "C
b000000000000010 o
b000000000000001 "n
1=
1(
07
1"q
0#&
1"x
02
0#K
b000000000000010 {
0"G
b000000000000001 #/
1#M
b000000000000010 A
b000000000000010 P
b000000000000010 #)
b000000000000001 n
#196
0"q
1#&
0"x
0"Q
12
1#K
1"G
0=
0(
17
0#M
#201
b0000000000000000 "2
b000000000000000 ",
b000000000000000 ##
1"Q
b0100111 J
b000000000000000 "C
b000000000000001 o
b000000000000000 "n
1=
1(
07
1"q
0#&
1"x
02
0#K
b000000000000001 {
0"G
b000000000000000 #/
1#M
b000000000000001 A
b000000000000001 P
b000000000000001 #)
b000000000000000 n
#206
0"q
1#&
0"x
0"Q
12
1#K
1"G
0=
0(
17
0#M
#211
b011 g
b1001110 J
b111111111111111 "n
07
b011 "=
0c
1"q
02
0#K
b011 ]
b000000000000000 {
0#L
1#M
b000000000000000 A
b1111111111111111 "2
1"Q
b000000000000000 o
0E
0"5
1=
1(
0p
0"D
0#&
1"x
0"E
0#'
0"G
b011 :
b011 #>
b110 "H
b000000000000000 #)
b000000000000000 P
#216
b00000000000000000000000000001100 <
b00000000000000000000000000001100 "t
0"q
1#&
0"x
0"Q
12
1#K
1"G
0=
0(
17
0#M
#221
b100 g
1"Q
1=
1(
07
b100 "=
b00000011 ">
1"q
0#&
1"x
0"T
02
0#K
b100 ]
0"G
b100 #>
1#M
b100 "l
#226
0"q
b00000000000000000000000000000000 4
1#&
0"x
0"Q
12
1#K
b00000000000000000000000000000000 Z
1"G
0=
0(
17
0#M
#231
b111 g
1"Q
1"5
1=
1(
07
b111 [
1p
b111 "=
1"D
1c
b00000100 ">
1"q
0#&
1"x
1"T
1"E
02
0#K
1#'
b111 ]
0"G
1#L
b111 #>
1#M
b111 "l
#236
b00000000000000000000000000000000 "f
0"Q
1#G
b00000000000000000000000000001100 "g
0"&
0=
0(
17
1#P
b00000000000000000000000000000000 j
1M
1#C
0"q
b00000000000000000000000000001100 "
1"b
1#&
0"x
12
1#K
1"F
1"G
0#M
0"s
#241
b00000000000000000000000000001100 "v
b00000000000000000000000000001100 #O
1"Y
1"p
1"S
b00000111 ">
02
0#K
1#6
1*
b0001100 "M
1I
1#M
b000 "l
0,
0"d
b00000000000000000000000000001100 #0
b1001110 "O
1C
1"Q
1#*
1"4
1#I
1=
1(
1"`
0"K
b00000000000000000000000000000000 "h
1".
1T
1?
b1001110 "w
0#&
b00001100 k
0"(
0"y
0"G
b00000000000000000000000000001100 #(
0m
1"*
1"{
b0001100 #"
b000 g
15
1#9
0i
1L
07
1/
1#3
b000 "=
0"R
1"q
1#5
0"?
b000 ]
1#F
1"P
b1001110 "3
1D
1#+
1x
b000 [
b00000000000000000000000000001100 "~
1)
0#B
0U
1@
1"x
1#D
1"1
0l
b1001110 W
b000 #>
#246
0"q
1#&
0"x
0"Q
12
1#K
1"G
0=
0(
17
0#P
0#M
0M
#251
1#?
03
b001 g
1#$
b101 ";
0"Y
0#;
b00000000000000000000000000000000 "Z
b00000000 ">
1"q
1"6
1"!
1d
1"7
b001 ]
1^
1#M
b000000000000111 A
1"Q
1#2
0"4
1=
1(
1#,
1q
1r
0"b
0#&
1"x
1"c
1"[
19
1")
1"r
0"@
1;
#256
b00000000000000000000000000010000 <
b00000000000000000000000000010000 "t
0"q
1#&
0"x
0"Q
0=
0(
0#M
#261
b00000000000000000000000000000000 #@
b000000000000110 ##
b00000000000000000000000000000000 "v
b00000000000000000000000000000000 #O
1"<
b00000000000000000000000000000000 #Q
0"p
0"S
b00000001 ">
0"6
0"!
0d
0#6
0*
b0000000 "M
0I
1#M
1,
b0000000 "O
1u
0C
0#G
1"Q
0#2
0#*
1"I
0#I
1=
1(
0"`
0".
0q
0T
0?
b0000000 "w
0#C
0#&
b00000000 k
b00000000000000000000000000000000 #=
b00000000000000000000000000000000 #(
0"*
0"{
0;
0#?
b0000000 #"
b000000000000110 ",
b010 g
05
0#9
b000000000000110 "C
1"&
0L
0/
0#3
0c
1"q
0#5
0"7
b010 ]
1H
0#L
1"9
b00000000000000000000000000000000 t
1B
0#F
1#1
0"P
b0000000 "3
0D
0#+
0"5
0x
0p
b00000000000000000000000000000000 "~
1>
0)
0"D
0r
1#%
0@
1"x
0#D
0"c
1#<
0#'
0"1
0"[
0"F
0")
b0000000 W
b010 #>
#266
0"q
b00000000000000000000000001101101 4
1#&
0"x
0"Q
b00000000000000000000000001101101 Z
0=
0(
0#M
#271
1"s
b000000000000101 ",
b000000000000101 ##
b0000001 J
0#$
b000000000000101 "C
b000000000000101 "n
0"<
b010 "=
1c
b00000010 ">
1"q
1"?
0H
b000000000000110 {
1#L
0^
b000000000000101 #/
0"9
1#M
1"d
0B
b0000000000000101 "2
0u
0#1
1"Q
0"I
b000000000000110 o
1E
1"5
1=
1(
1p
1"K
0>
1"D
0#%
1U
0#&
1"x
0#<
1#'
1"y
09
b010 :
0"r
b101 "H
b000000000000110 #)
b000000000000110 P
b000000000000101 n
#276
b00000000000000000000000001101101 "f
0"Q
1#G
b00000000000000000000000000010000 "g
0"&
0=
0(
1#P
b00000000000000000000000001101101 j
1M
1#C
0"q
b00000000000000000000000000010000 "
1"b
1#&
0"x
1"F
0#M
0"s
#281
b000000000000100 ##
b00000000000000000000000000010000 "v
b01101101 6
b000000000000100 "n
b00000000000000000000000000010000 #O
1"p
1"S
02
0#K
1*
b0010000 "M
b000000000000101 {
1I
1#M
0,
0"d
b00000000000000000000000000010000 #0
b1001110 "O
b0000000000000100 "2
1C
1.
1"Q
1#*
b000000000000101 o
0E
b00000000000000000000000001101101 "h
1=
1(
0#,
1".
1?
0#&
0"E
b00010000 k
0"y
b1101101 $
0"G
b00000000000000000000000000010000 #(
1"*
1"{
b000000000000101 P
13
b0010000 #"
b000000000000100 ",
b0000010 J
b000000000000100 "C
b00000000000000000000000001101101 a
1L
07
1/
0c
1"q
1#5
0"?
b00000000000000000000000001101101 z
0#L
b00000000000000000000000001101101 +
b000000000000100 #/
b01101101 |
b00000000000000000000000001101101 _
b00000000000000000000000001101101 "e
b01101101 %
b1001110 "3
1D
b01101101 #H
b01101101 '
1#+
0"5
1x
0p
b00000000000000000000000000010000 "~
1)
0"D
1@
1"x
1#D
0#'
1"1
b000000000000101 #)
b000000000000100 n
#286
0"q
1#&
0"x
0"Q
12
1#K
1"G
0=
0(
17
0#P
0#M
0M
