test_run_dir/I2C_HARNESS_TEST/i2cHarness.vcd
$date
2022-03-30T07:28+0000
$end
$version
0.2
$end
$comment

$end
$timescale 1ns  $end
$scope module i2cHarness $end
 $var wire 1 & io_request_bits_isWrite $end
 $var wire 32 = io_request_bits_addrRequest $end
 $var wire 1 I io_i2c_sda_in $end
 $var wire 1 N io_request_valid $end
 $var wire 1 S io_response_bits_error $end
 $var wire 1 X i2c_wrapper $end
 $var wire 32 Z io_request_bits_dataRequest $end
 $var wire 1 "" io_response_ready $end
 $var wire 4 ", io_request_bits_activeByteLane $end
 $var wire 1 "B io_i2c_scl $end
 $var wire 1 "I clock $end
 $var wire 1 "U deviceAdapter $end
 $var wire 1 "[ io_request_ready $end
 $var wire 1 #. io_response_valid $end
 $var wire 1 #0 io_i2c_intr $end
 $var wire 1 #2 hostAdapter $end
 $var wire 1 #5 reset $end
 $var wire 32 #< io_response_bits_dataResponse $end
 $var wire 1 #I io_i2c_sda $end
  $scope module hostAdapter $end
   $var wire 32 # _GEN_13 $end
   $var wire 1 . _GEN_28 $end
   $var wire 1 3 _GEN_5 $end
   $var wire 32 8 io_reqIn_bits_dataRequest $end
   $var wire 1 > clock $end
   $var wire 1 A io_wbMasterTransmitter_bits_stb $end
   $var wire 1 B io_wbMasterTransmitter_valid $end
   $var wire 1 D io_rspOut_valid $end
   $var wire 1 E startWBTransaction $end
   $var wire 1 [ _GEN_4 $end
   $var wire 1 \ _GEN_27 $end
   $var wire 32 ] io_wbMasterTransmitter_bits_dat $end
   $var wire 1 ^ io_reqIn_bits_isWrite $end
   $var wire 1 a _GEN_33 $end
   $var wire 1 b errReg $end
   $var wire 32 f _GEN_7 $end
   $var wire 1 m _stateReg_T $end
   $var wire 1 o io_rspOut_bits_error $end
   $var wire 32 p io_rspOut_bits_dataResponse $end
   $var wire 1 x _GEN_24 $end
   $var wire 1 } cycReg $end
   $var wire 1 "! _GEN_1 $end
   $var wire 1 "$ _GEN_30 $end
   $var wire 1 "( _GEN_12 $end
   $var wire 1 "0 io_wbMasterTransmitter_bits_cyc $end
   $var wire 1 "9 stbReg $end
   $var wire 1 "= stateReg $end
   $var wire 1 "> io_reqIn_ready $end
   $var wire 1 "A _GEN_9 $end
   $var wire 1 "C _GEN_23 $end
   $var wire 1 "D weReg $end
   $var wire 1 "M _GEN_11 $end
   $var wire 1 "N reset $end
   $var wire 1 "O _GEN_3 $end
   $var wire 32 "Q _GEN_26 $end
   $var wire 1 "R _GEN_32 $end
   $var wire 1 "T io_wbMasterTransmitter_ready $end
   $var wire 1 "W _GEN_29 $end
   $var wire 32 "_ _GEN_14 $end
   $var wire 32 "` _GEN_6 $end
   $var wire 32 "d datReg $end
   $var wire 32 "e io_wbSlaveReceiver_bits_dat $end
   $var wire 1 "p _GEN_0 $end
   $var wire 32 "r io_reqIn_bits_addrRequest $end
   $var wire 1 "w readyReg $end
   $var wire 1 #" io_wbSlaveReceiver_bits_err $end
   $var wire 1 #% respReg $end
   $var wire 32 #& io_wbMasterTransmitter_bits_adr $end
   $var wire 1 #( io_wbMasterTransmitter_bits_we $end
   $var wire 32 #- adrReg $end
   $var wire 32 #9 _GEN_22 $end
   $var wire 1 #; io_wbSlaveReceiver_bits_ack $end
   $var wire 1 #= _GEN_10 $end
   $var wire 1 #@ _GEN_2 $end
   $var wire 1 #C _GEN_25 $end
   $var wire 1 #H io_wbSlaveReceiver_ready $end
   $var wire 1 #K _GEN_31 $end
   $var wire 1 #M io_reqIn_valid $end
   $var wire 32 #N dataReg $end
  $upscope $end
  $scope module i2c_wrapper.i2c_top.i2c $end
  $upscope $end
  $scope module deviceAdapter $end
   $var wire 1 * io_reqOut_valid $end
   $var wire 32 + io_reqOut_bits_dataRequest $end
   $var wire 1 0 io_wbMasterReceiver_bits_we $end
   $var wire 32 4 io_wbSlaveTransmitter_bits_dat $end
   $var wire 1 J io_rspIn_bits_error $end
   $var wire 1 L io_wbMasterReceiver_bits_stb $end
   $var wire 1 U io_wbSlaveTransmitter_ready $end
   $var wire 1 V io_wbSlaveTransmitter_bits_err $end
   $var wire 32 _ io_wbMasterReceiver_bits_dat $end
   $var wire 1 q _GEN_5 $end
   $var wire 1 s io_wbMasterReceiver_valid $end
   $var wire 1 y io_wbSlaveTransmitter_bits_ack $end
   $var wire 1 "* io_wbMasterReceiver_bits_cyc $end
   $var wire 1 ": _GEN_19 $end
   $var wire 1 "F io_wbMasterReceiver_ready $end
   $var wire 1 "L io_reqOut_bits_isWrite $end
   $var wire 32 "S io_rspIn_bits_dataResponse $end
   $var wire 1 "X _GEN_18 $end
   $var wire 1 "m io_rspIn_valid $end
   $var wire 32 "s io_reqOut_bits_addrRequest $end
   $var wire 1 "| _T $end
   $var wire 32 "~ io_wbMasterReceiver_bits_adr $end
  $upscope $end
  $scope module i2c_wrapper $end
   $var wire 1 ( clock $end
   $var wire 1 ) write_register $end
   $var wire 1 , _read_register_T_1 $end
   $var wire 1 : io_cio_i2c_scl $end
   $var wire 1 < io_response_valid_REG $end
   $var wire 1 ? io_response_bits_error_REG $end
   $var wire 1 F io_request_valid $end
   $var wire 32 R io_response_bits_dataResponse $end
   $var wire 32 T io_response_bits_dataResponse_REG $end
   $var wire 1 c i2c_top $end
   $var wire 8 g addr_reg $end
   $var wire 1 l io_cio_i2c_sda $end
   $var wire 1 n io_cio_i2c_intr $end
   $var wire 32 t io_request_bits_dataRequest $end
   $var wire 1 "& io_request_bits_isWrite $end
   $var wire 1 "' io_request_ready $end
   $var wire 1 "< read_register $end
   $var wire 1 "@ reset $end
   $var wire 7 "E _addr_reg_T $end
   $var wire 1 #$ io_response_valid $end
   $var wire 1 #) _write_register_T $end
   $var wire 1 #8 io_response_bits_error $end
   $var wire 32 #L io_request_bits_addrRequest $end
    $scope module i2c_top $end
     $var wire 8 ! _GEN_3 $end
     $var wire 7 $ _addr_slave_addr_T $end
     $var wire 8 % _GEN_21 $end
     $var wire 8 ' _GEN_15 $end
     $var wire 1 / _addr_start_bit_T $end
     $var wire 1 7 io_scl $end
     $var wire 8 9 _addr_data_T $end
     $var wire 1 ; io_ren $end
     $var wire 1 M io_we $end
     $var wire 7 W _GEN_2 $end
     $var wire 1 Y addr_start_bit $end
     $var wire 7 ` _GEN_20 $end
     $var wire 1 e _GEN_5 $end
     $var wire 1 h _GEN_23 $end
     $var wire 1 i _GEN_17 $end
     $var wire 1 r reset $end
     $var wire 8 u _GEN_26 $end
     $var wire 8 { _GEN_8 $end
     $var wire 1 ~ _T $end
     $var wire 1 "# _GEN_11 $end
     $var wire 7 "1 _GEN_14 $end
     $var wire 1 "5 io_sda $end
     $var wire 1 "6 io_intr $end
     $var wire 1 "? addr_sda_in $end
     $var wire 7 "G _GEN_13 $end
     $var wire 1 "H _GEN_1 $end
     $var wire 1 "J _GEN_28 $end
     $var wire 1 "P addr_read_write_bit $end
     $var wire 1 "Y i2c $end
     $var wire 32 "\ io_wdata $end
     $var wire 1 "f _GEN_22 $end
     $var wire 1 "g _GEN_4 $end
     $var wire 1 "i _GEN_16 $end
     $var wire 1 "k _GEN_10 $end
     $var wire 1 "l _GEN_19 $end
     $var wire 7 "u _GEN_7 $end
     $var wire 7 "x _GEN_25 $end
     $var wire 7 ## io_addr $end
     $var wire 8 #* addr_data $end
     $var wire 7 #+ addr_slave_addr $end
     $var wire 1 #1 _GEN_6 $end
     $var wire 1 #3 _GEN_18 $end
     $var wire 1 #7 _GEN_24 $end
     $var wire 1 #? _GEN_0 $end
     $var wire 1 #A _GEN_12 $end
     $var wire 1 #B _GEN_27 $end
     $var wire 8 #G _GEN_9 $end
     $var wire 1 #J clock $end
      $scope module i2c $end
       $var wire 15 " _GEN_5 $end
       $var wire 1 - io_i2c_intr $end
       $var wire 1 1 _io_i2c_sda_T_1 $end
       $var wire 3 2 _GEN_21 $end
       $var wire 1 5 _GEN_42 $end
       $var wire 15 6 _GEN_36 $end
       $var wire 1 @ io_i2c_sda $end
       $var wire 7 C _io_i2c_sda_T $end
       $var wire 1 G i2c_scl_enable $end
       $var wire 15 H count $end
       $var wire 3 K _GEN_30 $end
       $var wire 1 O _GEN_27 $end
       $var wire 1 P reset $end
       $var wire 3 Q _GEN_12 $end
       $var wire 3 d _GEN_59 $end
       $var wire 8 j io_data $end
       $var wire 1 k _GEN_50 $end
       $var wire 1 v _GEN_1 $end
       $var wire 1 w intr_done $end
       $var wire 15 z _GEN_26 $end
       $var wire 3 | _GEN_53 $end
       $var wire 1 "% _GEN_32 $end
       $var wire 16 ") _count_T $end
       $var wire 3 "+ _GEN_4 $end
       $var wire 1 "- clk $end
       $var wire 8 ". state $end
       $var wire 3 "/ _GEN_35 $end
       $var wire 15 "2 _count_T_1 $end
       $var wire 15 "3 _GEN_41 $end
       $var wire 1 "4 _GEN_23 $end
       $var wire 1 "7 _io_i2c_sda_T_3 $end
       $var wire 1 "8 _GEN_38 $end
       $var wire 1 "; io_read_write $end
       $var wire 1 "K _GEN_61 $end
       $var wire 15 "V _GEN_49 $end
       $var wire 8 "Z _io_i2c_sda_T_2 $end
       $var wire 15 "] _GEN_58 $end
       $var wire 1 "^ _GEN_6 $end
       $var wire 1 "a _GEN_43 $end
       $var wire 1 "b clock $end
       $var wire 1 "c _GEN_37 $end
       $var wire 1 "h io_i2c_scl $end
       $var wire 1 "j _GEN_19 $end
       $var wire 1 "n _GEN_0 $end
       $var wire 4 "o _GEN_9 $end
       $var wire 3 "q _GEN_25 $end
       $var wire 15 "t _GEN_31 $end
       $var wire 1 "v _io_i2c_scl_T_1 $end
       $var wire 1 "y _GEN_52 $end
       $var wire 3 "z _GEN_40 $end
       $var wire 1 "{ _GEN_28 $end
       $var wire 3 "} _GEN_13 $end
       $var wire 1 #! io_start $end
       $var wire 1 #' _GEN_16 $end
       $var wire 1 #, _GEN_22 $end
       $var wire 1 #/ _io_i2c_scl_T $end
       $var wire 1 #4 _GEN_51 $end
       $var wire 15 #6 _GEN_66 $end
       $var wire 1 #: io_i2c_sda_in $end
       $var wire 3 #> _GEN_2 $end
       $var wire 1 #D _GEN_33 $end
       $var wire 3 #E _GEN_48 $end
       $var wire 7 #F io_addr $end
      $upscope $end
    $upscope $end
  $upscope $end
  $scope module i2c_wrapper.i2c_top $end
  $upscope $end
$upscope $end
$enddefinitions $end
$dumpvars
b00000000 "Z
0o
0"c
0#D
0"P
0#1
b0000000 "E
0"v
0m
b000000000000000 #6
0~
0a
0L
0"@
0#!
0D
0/
0"#
b00000000000000000000000000000000 "\
b000000000000000 6
0"n
0r
0#2
0"<
0@
b00000000000000000000000000000000 #9
b0000000 #F
1#H
0"l
0#M
0"O
0#0
b00000000000000000000000000000000 T
0>
b0000 ",
0l
0#A
0"K
0#,
0O
0"C
0#$
0:
b0000000 ##
b00000000 !
0"?
0"*
b00000000 #G
0?
b00000000000000000000000000000000 t
b00000000000000000000000000000000 _
0"=
b000 d
0;
b000 2
0"k
b00000000000000000000000000000000 "S
b00000000000000000000000000000000 p
0"N
0#/
0"9
b00000000 {
0k
0#@
0N
0"-
b00000000000000000000000000000000 "Q
b0000000 C
0J
0-
b00000000000000000000000000000000 #&
0"Y
0#:
b0000000 "1
0n
0Y
0"M
0#.
b00000000000000000000000000000000 =
0<
b0000000000000000 ")
0"{
0U
0"I
0M
b000 "q
b00000000000000000000000000000000 #N
b00000000000000000000000000000000 "e
b0000000 W
b00000000 '
0"y
0}
0h
0#=
0#(
b00000000 j
b000 Q
0y
b000 "/
0"X
b000000000000000 "3
0\
b00000000000000000000000000000000 ]
0";
0"&
0G
b00000000000000000000000000000000 +
0*
b00000000000000000000000000000000 "_
0"m
0X
0"L
0"7
0""
0&
b000000000000000 "t
0"|
b00000000000000000000000000000000 "d
0"g
0V
0"J
b0000000 $
b000 #E
b00000000000000000000000000000000 "`
0"[
0#'
05
b00000000 9
0x
b000000000000000 "2
0[
0F
0":
0)
b00000000000000000000000000000000 "s
b00000000 g
0v
0"j
0#K
0"U
b00000000000000000000000000000000 Z
0"8
b00000000000000000000000000000000 #L
0"f
0"4
0"w
0#;
0I
0"(
b00000000000000000000000000000000 "~
b00000000000000000000000000000000 #-
0w
0b
0#7
1"F
0E
00
0"$
0(
b00000000000000000000000000000000 "r
b000 #>
b00000000 ".
0"i
0"T
0#J
0#5
b000 "+
b0000000 `
b000000000000000 "]
0q
0i
0"H
0#)
07
b00000000000000000000000000000000 8
b00000000000000000000000000000000 #
b00000000 u
b0000000 "G
b000000000000000 z
b000000000000000 H
0"a
0#B
0e
b00000000000000000000000000000000 f
0"D
0#%
0P
b00000000000000000000000000000000 4
03
b0000000 "u
b000 "}
0c
0"W
0"B
0#8
01
0"%
0"p
0"h
0#4
0">
0#I
0B
0"6
0"!
b0000000 #+
b000 |
0S
b0000000 "x
b00000000 %
0"b
0#C
b00000000000000000000000000000000 R
0"0
0.
1"'
b000000000000000 "V
0"^
0#?
b00000000000000000000000000000000 #<
0"A
0#"
b000000000000000 "
b00000000 #*
b000 K
b0000 "o
0s
0^
0"R
0#3
b000 "z
0A
0,
0"5
$end
#0
b101 Q
1"B
1"v
1~
17
b1000 "o
1#4
1#5
1"T
1"j
1"8
1#/
1"N
1,
b111111111111111 "2
1"4
b110 "}
1"h
1"5
1#I
1"a
1r
1U
1@
1#D
b1111111111111111 ")
1l
1:
1"{
1P
1"@
b011 "+
#1
0"B
1"I
0"v
0"h
1(
1"-
07
1>
1"p
1"w
1"b
1">
1#J
1"!
1G
1"[
0:
0#/
#6
1"B
1&
0"I
1"v
1"h
0(
0"-
17
0>
0r
0"b
0#J
0#5
1:
0"N
1^
0P
0"@
#11
1"b
1#J
0G
1"I
0"v
1(
1"-
1#/
1>
#16
0"b
0#J
0"I
1"v
b00000000000000000000000000000100 =
0(
0"-
b00000000000000000000000000000100 "r
0>
#21
1"b
1#J
1"I
0"v
1(
1"-
1>
#26
0"b
0#J
b00000000000000000000000001001110 8
0"I
1"v
b00000000000000000000000001001110 Z
0(
0"-
0>
#31
1"b
1#J
1"I
0"v
1(
1"-
1>
#36
13
b00000000000000000000000001001110 f
1"A
b00000000000000000000000001001110 "_
1#@
1"W
0"I
1"v
0(
0"-
b00000000000000000000000000000100 "`
1[
0>
0"p
1N
0"b
1#C
0#J
0"!
b00000000000000000000000000000100 #
1"(
1"M
1#=
1#M
1"O
#41
b00000100 g
b0000100 ##
1}
0"v
1"&
1L
1M
10
0">
1F
1#J
1*
b00000000000000000000000001001110 ]
b00000000000000000000000000000100 #L
b00000000000000000000000001001110 +
1"9
1A
b00000000000000000000000001001110 t
b00000000000000000000000001001110 "d
b00000000000000000000000001001110 _
0,
1B
b1001110 `
1"I
1"|
1E
1(
1"-
b00000000000000000000000000000100 "~
1>
1)
b00000000000000000000000000000100 #-
1"L
1"D
0"w
1"b
b00000000000000000000000000000100 #&
b0000100 "E
1s
1"0
b1001110 "x
0"[
b1001110 "1
b01001110 9
b1001110 $
b00000000000000000000000001001110 "\
1#(
1"*
1#)
b00000000000000000000000000000100 "s
#46
0N
0"b
0#J
0"I
1"v
0(
0"-
0#M
0>
#51
1<
b00000000000000000000000001001110 4
1"$
b00000000000000000000000001001110 R
0"W
1"X
1#$
0"v
1a
1#;
1"R
b00000000000000000000000001001110 "S
1y
1#J
1"m
b1001110 #F
b00000000000000000000000001001110 "e
b1001110 C
b00000000000000000000000001001110 "Q
1"I
b1001110 #+
1(
1"-
1>
1\
b00000000000000000000000001001110 T
1"b
1m
#56
0"b
0#J
0"I
1"v
b00000000000000000000000000001000 =
0(
0"-
b00000000000000000000000000001000 "r
0>
#61
0#@
b0000000 ##
0"v
0M
00
0y
1"!
0*
1#.
0A
1,
1"I
0E
1(
1"b
0#C
b00000000000000000000000000000000 #&
b0000000 "E
0s
0"0
b00000000 9
b0000000 $
b00000000000000000000000000000000 "\
0#(
0"*
0m
b00000000000000000000000000000000 "s
0"A
b00000000 g
0"$
b00000000000000000000000001001110 #9
1"C
0"&
0a
0L
0#;
0"R
1"=
0F
1#J
b00000000000000000000000000000000 ]
b00000000000000000000000000000000 #L
b00000000000000000000000000000000 +
b00000000000000000000000000000000 t
b00000000000000000000000000000000 _
b00000000000000000000000001001110 #N
0B
1D
0"|
1"-
b00000000000000000000000001001110 p
b00000000000000000000000000000000 "~
1>
0)
0"L
1#%
b00000000000000000000000001001110 #<
b0000000 "1
0#)
#66
0"b
0#J
b00000000000000000000000000000000 8
0"I
1"v
b00000000000000000000000000000000 Z
0(
0"-
0>
#71
0"m
0<
b00000000000000000000000000000000 "e
b00000000000000000000000000000000 4
b00000000000000000000000000000000 R
1"I
0D
0#$
0"v
0"X
0"C
1(
1"-
1>
0"=
1"p
0\
b00000000000000000000000000000000 T
0#%
b00000000000000000000000000000000 "S
1"b
1"w
1">
1#J
1"[
0#.
#76
b00000000000000000000000000000000 f
1"A
b00000000000000000000000000000000 "_
1#@
1"W
0"I
1"v
0(
0"-
b00000000000000000000000000001000 "`
0>
0"p
1N
0"b
1#C
0#J
0"!
b00000000000000000000000000001000 #
1#M
#81
b00001000 g
b0001000 ##
b1001110 "u
0"v
1"&
1L
1M
10
0">
1F
1#J
1*
b00000000000000000000000000001000 #L
1A
0,
b00000000000000000000000000000000 "d
1B
1"I
1"|
1E
1(
1"-
b00000000000000000000000000001000 "~
1>
1)
b00000000000000000000000000001000 #-
1"L
0"w
1"b
b00000000000000000000000000001000 #&
b0001000 "E
1s
1"0
0"[
b1001110 "1
b1001110 "G
1#(
1"*
1#)
b00000000000000000000000000001000 "s
#86
0N
0"b
0#J
0"I
1"v
0(
0"-
0#M
0>
#91
1"m
1<
1"$
0"W
b00000000000000000000000000000000 "Q
1"I
1"X
1#$
0"v
1a
1(
1"-
1#;
1>
1"R
1\
1"b
1y
1#J
1m
#96
0"b
0#J
0"I
1"v
b00000000000000000000000000010000 =
0(
0"-
b00000000000000000000000000010000 "r
0>
#101
0"A
0#@
b00000000 g
0"$
b0000000 ##
b0000000 "u
b00000000000000000000000000000000 #9
1"C
0"v
0"&
0a
0L
0#;
0M
1"=
0"R
00
0F
0y
1#J
1"!
0*
1#.
b00000000000000000000000000000000 #L
0A
1,
b00000000000000000000000000000000 #N
0B
1"I
1D
0"|
0E
1(
1"-
b00000000000000000000000000000000 p
b00000000000000000000000000000000 "~
1>
0)
0"L
1#%
1"b
0#C
b00000000000000000000000000000000 #&
b0000000 "E
0s
0"0
b00000000000000000000000000000000 #<
b0000000 "1
b0000000 "G
0#(
0"*
0m
0#)
b00000000000000000000000000000000 "s
#106
0"b
0#J
b00000000000000000000000001101101 8
0"I
1"v
b00000000000000000000000001101101 Z
0(
0"-
0>
#111
0"m
0<
1"I
0D
0#$
0"v
0"X
0"C
1(
1"-
1>
0"=
1"p
0\
0#%
1"w
1"b
1">
1#J
1"[
0#.
#116
b00000000000000000000000001101101 f
1"A
b00000000000000000000000001101101 "_
1#@
1"W
0"I
1"v
0(
0"-
b00000000000000000000000000010000 "`
0>
0"p
1N
0"b
1#C
0#J
0"!
b00000000000000000000000000010000 #
1#M
#121
b00010000 g
b0010000 ##
0"v
1"&
1L
1/
1M
10
0">
1F
1#J
1*
b00000000000000000000000001101101 ]
b00000000000000000000000000010000 #L
b00000000000000000000000001101101 +
1A
b00000000000000000000000001101101 t
b00000000000000000000000001101101 "d
b00000000000000000000000001101101 _
0,
1B
b01101101 u
b01101101 %
b01101101 #G
1"I
1"|
b01101101 '
1E
1(
1"-
b00000000000000000000000000010000 "~
1>
1)
b00000000000000000000000000010000 #-
1"L
0"w
1"b
b00000000000000000000000000010000 #&
b0010000 "E
1s
1"0
0"[
b1001110 "1
b01101101 9
b1101101 $
b00000000000000000000000001101101 "\
b1001110 "G
1#(
1"*
1#)
b00000000000000000000000000010000 "s
#126
0N
0"b
0#J
0"I
1"v
0(
0"-
0#M
0>
#131
1<
b00000000000000000000000001101101 4
1"$
b00000000000000000000000001101101 R
0"W
1"X
1#$
0"v
1a
b01101101 j
b01101101 "Z
1#;
1"R
b00000000000000000000000001101101 "S
1y
1#J
1"7
1"m
b00000000000000000000000001101101 "e
b00000000000000000000000001101101 "Q
1"I
b01101101 #*
1(
1"-
1>
1\
b00000000000000000000000001101101 T
1"b
1m
#136
0"b
0#J
0"I
1"v
b00000000000000000000000000000000 =
0(
0"-
b00000000000000000000000000000000 "r
0>
#141
0#@
b0000000 ##
0"v
0M
00
0y
1"!
0*
1#.
0A
1,
b00000000 #G
1"I
0E
1(
1"b
0#C
b00000000000000000000000000000000 #&
b0000000 "E
0s
0"0
b00000000 9
b0000000 $
b00000000000000000000000000000000 "\
b0000000 "G
0#(
0"*
0m
b00000000000000000000000000000000 "s
0"A
b00000000 g
0"$
b00000000000000000000000001101101 #9
1"C
0"&
0a
0L
0#;
0/
0"R
1"=
0F
1#J
b00000000000000000000000000000000 ]
b00000000000000000000000000000000 #L
b00000000000000000000000000000000 +
b00000000000000000000000000000000 t
b00000000000000000000000000000000 _
b00000000000000000000000001101101 #N
0B
1D
0"|
b00000000 '
1"-
b00000000000000000000000001101101 p
b00000000000000000000000000000000 "~
1>
0)
0"L
1#%
b00000000000000000000000001101101 #<
b0000000 "1
0#)
#146
0"b
0#J
b00000000000000000000000000000001 8
0"I
1"v
b00000000000000000000000000000001 Z
0(
0"-
0>
#151
0"m
0<
b00000000000000000000000000000000 "e
b00000000000000000000000000000000 4
b00000000000000000000000000000000 R
1"I
0D
0#$
0"v
0"X
0"C
1(
1"-
1>
0"=
1"p
0\
b00000000000000000000000000000000 T
0#%
b00000000000000000000000000000000 "S
1"b
1"w
1">
1#J
1"[
0#.
#156
b00000000000000000000000000000001 f
1"A
b00000000000000000000000000000001 "_
1#@
1"W
0"I
1"v
0(
0"-
b00000000000000000000000000000000 "`
0>
0"p
1N
0"b
1#C
0#J
0"!
b00000000000000000000000000000000 #
1#M
#161
0"v
1"&
1L
1/
1M
10
0">
1F
1#J
1*
b00000000000000000000000000000001 ]
1#7
b00000000000000000000000000000001 +
1"l
1A
0,
b00000000000000000000000000000001 t
b00000000000000000000000000000001 "d
b00000000000000000000000000000001 _
1B
1"I
1"|
1E
1(
1"-
1>
1)
b00000000000000000000000000000000 #-
1"L
0"w
1"b
1s
1"0
0"[
b00000001 9
b0000001 $
b00000000000000000000000000000001 "\
1#(
1"*
1#)
#166
0N
0"b
0#J
0"I
1"v
0(
0"-
0#M
0>
#171
1<
b00000000000000000000000000000001 4
1"$
b00000000000000000000000000000001 R
0"W
1"X
1#$
0"v
1a
1#;
1"R
b00000000000000000000000000000001 "S
1y
1#J
b001 d
b001 |
1"m
b00000000000000000000000000000001 "e
b00000000000000000000000000000001 "Q
1Y
1"I
1(
1"-
1>
1\
b00000000000000000000000000000001 T
1"b
1m
b001 #>
1#!
#176
0"b
0#J
0"I
1"v
0(
0"-
0>
#181
0#@
0"v
0M
00
0#4
0y
b010 d
1"!
b000000000000110 #6
0*
1#.
0"l
0A
1,
b010 #E
1"I
0E
0#I
1(
b00000001 ".
1"b
0#C
0s
0"0
b00000000 9
b0000000 $
b00000000000000000000000000000000 "\
0#(
0"*
0m
0"A
0"$
b00000000000000000000000000000001 #9
1"C
0"&
0a
0L
0#;
0/
0"R
1"=
0F
1#J
b00000000000000000000000000000000 ]
b000000000000110 "V
b00000000000000000000000000000000 +
b010 |
b00000000000000000000000000000000 t
b00000000000000000000000000000000 _
b00000000000000000000000000000001 #N
0B
1D
0"|
0"5
1"-
b00000000000000000000000000000001 p
1>
0)
0"a
0"L
1#%
0@
b00000000000000000000000000000001 #<
0l
b000000000000110 "]
0#)
#186
0"b
0#J
0"I
1"v
0(
0"-
0>
#191
0<
b000000000000110 "t
b00000000000000000000000000000000 4
b00000000000000000000000000000000 R
0"X
0#$
0"v
0"C
b000000000000110 6
1"n
b00000001 "Z
0"=
1"p
1#4
b00000000000000000000000000000000 "S
1">
11
1#J
b000000000000110 z
b000000000000101 #6
b000000000000110 H
0#.
b000000000000101 "V
0"m
b000000000000101 "2
b00000000000000000000000000000000 "e
b0000001 C
b000000000000101 "3
1v
1"I
0D
b101 "}
1"5
1#I
1(
1"-
1>
b00000010 ".
1"a
0\
b00000000000000000000000000000000 T
0#%
1"w
1"b
b000000000000101 "
1@
1"[
b0000000000000101 ")
1l
b010 "z
b000000000000101 "]
b010 "+
#196
0"b
0#J
0"I
1"v
0(
0"-
0>
#201
b000000000000101 "t
0"B
0"v
b000000000000101 6
07
b00000011 "Z
0#4
01
1#J
1G
b000000000000101 z
b000000000000100 #6
b000000000000101 H
0"8
b000000000000100 "V
0#/
b000000000000100 "2
b0000010 C
b000000000000100 "3
1"I
0"5
0"h
0#I
1(
1"-
1>
0"a
1"b
b000000000000100 "
0@
b0000000000000100 ")
0l
0:
b000000000000100 "]
#206
0"b
0#J
1"B
0"I
1"v
1"h
0(
0"-
17
1:
0>
#211
b000000000000011 "2
b000000000000100 "t
b0000100 C
b000000000000011 "3
0"B
1"I
0"v
b000000000000100 6
0"h
1(
1"-
07
b00000110 "Z
1>
1"b
b000000000000011 "
1#J
0"7
b000000000000100 z
b000000000000011 #6
b000000000000100 H
b0000000000000011 ")
b000000000000011 "V
0:
b000000000000011 "]
#216
0"b
0#J
1"B
0"I
1"v
1"h
0(
0"-
17
1:
0>
#221
b000000000000011 "t
0"B
0"v
b000000000000011 6
07
b00001101 "Z
1#4
11
1#J
1"7
b000000000000011 z
b000000000000010 #6
b000000000000011 H
1"8
b000000000000010 "V
b000000000000010 "2
b0001001 C
b000000000000010 "3
1"I
1"5
0"h
1#I
1(
1"-
1>
1"a
1"b
b000000000000010 "
1@
b0000000000000010 ")
1l
0:
b000000000000010 "]
#226
0"b
0#J
1"B
0"I
1"v
1"h
0(
0"-
17
1:
0>
#231
b000000000000001 "2
b000000000000010 "t
b0010011 C
b000000000000001 "3
0"B
1"I
0"v
b000000000000010 6
0"h
1(
1"-
07
b00011011 "Z
1>
1"b
b000000000000001 "
1#J
b000000000000010 z
b000000000000001 #6
b000000000000010 H
b0000000000000001 ")
b000000000000001 "V
0:
b000000000000001 "]
#236
0"b
0#J
1"B
0"I
1"v
1"h
0(
0"-
17
1:
0>
#241
b000000000000000 "2
b000000000000001 "t
b0100111 C
b000000000000000 "3
0"B
1"I
0"v
b000000000000001 6
0"h
1(
1"-
07
b00110110 "Z
1>
1"b
b000000000000000 "
1#J
0"7
b000000000000001 z
b000000000000000 #6
b000000000000001 H
b0000000000000000 ")
b000000000000000 "V
0:
b000000000000000 "]
#246
0"b
0#J
1"B
0"I
1"v
1"h
0(
0"-
17
1:
0>
#251
b000000000000000 "t
0"B
0"v
b000000000000000 6
07
b01101101 "Z
0#4
01
1#J
b011 d
1"7
b000000000000000 z
b000000000000000 H
0"8
b011 |
b011 #E
b111111111111111 "2
b1001110 C
1"I
b110 "}
0"h
0"5
1(
1"-
0#I
1>
0"a
1"b
0@
b1111111111111111 ")
0l
b011 "z
0:
b011 "+
#256
0"b
0#J
1"B
0"I
1"v
1"h
b00000000000000000000000000001100 =
0(
0"-
17
1:
b00000000000000000000000000001100 "r
0>
#261
b000000000001000 "3
0"B
1"I
0"v
b000000000001000 6
0"h
1(
1"-
07
1>
b00000011 ".
b100 "/
1"b
1#J
b100 d
0#D
b000000000001000 #6
b100 "z
b000000000001000 "V
0:
b000000000001000 "]
b100 |
b100 #E
#266
0"b
0#J
1"B
b00000000000000000000000000000000 8
0"I
1"v
b00000000000000000000000000000000 Z
1"h
0(
0"-
17
1:
0>
#271
b000000000001000 "t
0"B
0"v
b101 K
07
b00000000 "Z
1#J
b101 d
0"7
b000000000001000 z
b000000000001000 H
b101 |
b101 #E
b000000000000111 "2
b0000000 C
1"I
b101 "}
0"h
1(
1"-
1>
b00000100 ".
b101 "/
1"b
b000000000000111 "
b0000000000000111 ")
b101 "z
0:
0"{
b010 "+
#276
b00000000000000000000000000000000 f
1"A
b00000000000000000000000000000000 "_
1#@
1"W
1"B
0"I
1"v
1"h
0(
0"-
17
b00000000000000000000000000001100 "`
0>
0"p
1N
0"b
1#C
0#J
0"!
b00000000000000000000000000001100 #
1:
1#M
#281
b000000000000111 "t
0"B
b0001100 ##
0"v
b000000000000111 6
1M
10
0">
b000000000000111 #6
1*
b01101101 {
1"l
1A
0,
b00000000000000000000000000000000 "d
b01101101 #G
1"I
0"4
1E
0"h
1(
1#A
b00000101 ".
0"w
1"b
b00000000000000000000000000001100 #&
b0001100 "E
1s
1"0
b1001110 "G
1#(
1"*
b00000000000000000000000000001100 "s
b00001100 g
b1001110 "u
1"&
1L
07
1#3
b101 "q
1F
1#J
b000000000000111 z
b00000000000000000000000000001100 #L
b000000000000111 "V
1B
1#1
b000000000000111 "3
1"|
b01101101 '
1"-
b00000000000000000000000000001100 "~
1>
1)
b00000000000000000000000000001100 #-
b01101101 !
1"L
0"[
b1001110 "1
b1001110 W
0:
b000000000000111 "]
1"H
1#)
#286
0N
0"b
0#J
1"B
0"I
1"v
1"h
0(
0"-
17
1:
0#M
0>
#291
1<
b000000000000110 "t
1"$
0"W
0"B
1"X
1#$
0"v
b000000000000110 6
1a
07
1#;
1"R
1y
1#J
b000000000000110 z
b000000000000110 #6
b000000000000111 H
b000000000000110 "V
1"m
b000000000000110 "2
b000000000000110 "3
b00000000000000000000000000000000 "Q
1"I
0"h
1(
1"-
1>
1\
1"b
b000000000000110 "
b0000000000000110 ")
0:
1m
b000000000000110 "]
#296
0"b
0#J
1"B
0"I
1"v
1"h
0(
0"-
17
1:
0>
