test_run_dir/I2C_HARNESS_TEST/i2cHarness.vcd
$date
2022-03-28T13:30+0000
$end
$version
0.2
$end
$comment

$end
$timescale 1ns  $end
$scope module i2cHarness $end
 $var wire 1 % io_request_bits_isWrite $end
 $var wire 32 ; io_request_bits_addrRequest $end
 $var wire 1 L io_request_valid $end
 $var wire 1 P io_response_bits_error $end
 $var wire 1 U i2c_wrapper $end
 $var wire 32 W io_request_bits_dataRequest $end
 $var wire 1 y io_response_ready $end
 $var wire 4 "& io_request_bits_activeByteLane $end
 $var wire 1 "< io_i2c_scl $end
 $var wire 1 "C clock $end
 $var wire 1 "M deviceAdapter $end
 $var wire 1 "R io_request_ready $end
 $var wire 1 #! io_response_valid $end
 $var wire 1 ## io_i2c_intr $end
 $var wire 1 #% hostAdapter $end
 $var wire 1 #( reset $end
 $var wire 32 #, io_response_bits_dataResponse $end
 $var wire 1 #7 io_i2c_sda $end
  $scope module hostAdapter $end
   $var wire 32 " _GEN_13 $end
   $var wire 1 - _GEN_28 $end
   $var wire 1 1 _GEN_5 $end
   $var wire 32 5 io_reqIn_bits_dataRequest $end
   $var wire 1 < clock $end
   $var wire 1 ? io_wbMasterTransmitter_bits_stb $end
   $var wire 1 @ io_wbMasterTransmitter_valid $end
   $var wire 1 C io_rspOut_valid $end
   $var wire 1 D startWBTransaction $end
   $var wire 1 X _GEN_4 $end
   $var wire 1 Y _GEN_27 $end
   $var wire 32 Z io_wbMasterTransmitter_bits_dat $end
   $var wire 1 [ io_reqIn_bits_isWrite $end
   $var wire 1 ] _GEN_33 $end
   $var wire 1 ^ errReg $end
   $var wire 32 a _GEN_7 $end
   $var wire 1 g _stateReg_T $end
   $var wire 1 i io_rspOut_bits_error $end
   $var wire 32 j io_rspOut_bits_dataResponse $end
   $var wire 1 r _GEN_24 $end
   $var wire 1 v cycReg $end
   $var wire 1 x _GEN_1 $end
   $var wire 1 { _GEN_30 $end
   $var wire 1 "! _GEN_12 $end
   $var wire 1 "+ io_wbMasterTransmitter_bits_cyc $end
   $var wire 1 "4 stbReg $end
   $var wire 1 "8 stateReg $end
   $var wire 1 "9 io_reqIn_ready $end
   $var wire 1 "; _GEN_9 $end
   $var wire 1 "= _GEN_23 $end
   $var wire 1 "> weReg $end
   $var wire 1 "E _GEN_11 $end
   $var wire 1 "F reset $end
   $var wire 1 "G _GEN_3 $end
   $var wire 32 "I _GEN_26 $end
   $var wire 1 "J _GEN_32 $end
   $var wire 1 "L io_wbMasterTransmitter_ready $end
   $var wire 1 "N _GEN_29 $end
   $var wire 32 "V _GEN_14 $end
   $var wire 32 "W _GEN_6 $end
   $var wire 32 "Z datReg $end
   $var wire 32 "[ io_wbSlaveReceiver_bits_dat $end
   $var wire 1 "f _GEN_0 $end
   $var wire 32 "h io_reqIn_bits_addrRequest $end
   $var wire 1 "l readyReg $end
   $var wire 1 "t io_wbSlaveReceiver_bits_err $end
   $var wire 1 "w respReg $end
   $var wire 32 "x io_wbMasterTransmitter_bits_adr $end
   $var wire 1 "y io_wbMasterTransmitter_bits_we $end
   $var wire 32 "~ adrReg $end
   $var wire 32 #* _GEN_22 $end
   $var wire 1 #+ io_wbSlaveReceiver_bits_ack $end
   $var wire 1 #- _GEN_10 $end
   $var wire 1 #0 _GEN_2 $end
   $var wire 1 #2 _GEN_25 $end
   $var wire 1 #6 io_wbSlaveReceiver_ready $end
   $var wire 1 #9 _GEN_31 $end
   $var wire 1 #; io_reqIn_valid $end
   $var wire 32 #< dataReg $end
  $upscope $end
  $scope module i2c_wrapper.i2c_top.i2c $end
  $upscope $end
  $scope module deviceAdapter $end
   $var wire 1 ) io_reqOut_valid $end
   $var wire 32 * io_reqOut_bits_dataRequest $end
   $var wire 1 / io_wbMasterReceiver_bits_we $end
   $var wire 32 2 io_wbSlaveTransmitter_bits_dat $end
   $var wire 1 H io_rspIn_bits_error $end
   $var wire 1 J io_wbMasterReceiver_bits_stb $end
   $var wire 1 R io_wbSlaveTransmitter_ready $end
   $var wire 1 S io_wbSlaveTransmitter_bits_err $end
   $var wire 32 \ io_wbMasterReceiver_bits_dat $end
   $var wire 1 k _GEN_5 $end
   $var wire 1 m io_wbMasterReceiver_valid $end
   $var wire 1 s io_wbSlaveTransmitter_bits_ack $end
   $var wire 1 "$ io_wbMasterReceiver_bits_cyc $end
   $var wire 1 "5 _GEN_19 $end
   $var wire 1 "@ io_wbMasterReceiver_ready $end
   $var wire 1 "D io_reqOut_bits_isWrite $end
   $var wire 32 "K io_rspIn_bits_dataResponse $end
   $var wire 1 "O _GEN_18 $end
   $var wire 1 "c io_rspIn_valid $end
   $var wire 32 "i io_reqOut_bits_addrRequest $end
   $var wire 1 "p _T $end
   $var wire 32 "r io_wbMasterReceiver_bits_adr $end
  $upscope $end
  $scope module i2c_wrapper $end
   $var wire 1 ' clock $end
   $var wire 1 ( write_register $end
   $var wire 1 + _read_register_T_1 $end
   $var wire 1 7 io_cio_i2c_scl $end
   $var wire 1 9 io_response_valid_REG $end
   $var wire 1 = io_response_bits_error_REG $end
   $var wire 1 E io_request_valid $end
   $var wire 32 O io_response_bits_dataResponse $end
   $var wire 32 Q io_response_bits_dataResponse_REG $end
   $var wire 1 _ i2c_top $end
   $var wire 8 b addr_reg $end
   $var wire 1 f io_cio_i2c_sda $end
   $var wire 1 h io_cio_i2c_intr $end
   $var wire 32 n io_request_bits_dataRequest $end
   $var wire 1 } io_request_bits_isWrite $end
   $var wire 1 ~ io_request_ready $end
   $var wire 1 "7 read_register $end
   $var wire 1 ": reset $end
   $var wire 7 "? _addr_reg_T $end
   $var wire 1 "v io_response_valid $end
   $var wire 1 "z _write_register_T $end
   $var wire 1 #) io_response_bits_error $end
   $var wire 32 #: io_request_bits_addrRequest $end
    $scope module i2c_top $end
     $var wire 8 ! _GEN_3 $end
     $var wire 7 $ _addr_slave_addr_T $end
     $var wire 1 & _GEN_15 $end
     $var wire 1 . _addr_start_bit_T $end
     $var wire 1 4 io_scl $end
     $var wire 8 6 _addr_data_T $end
     $var wire 1 8 io_ren $end
     $var wire 1 K io_we $end
     $var wire 7 T _GEN_2 $end
     $var wire 1 V addr_start_bit $end
     $var wire 1 ` _GEN_5 $end
     $var wire 7 c _GEN_17 $end
     $var wire 1 l reset $end
     $var wire 7 t _GEN_8 $end
     $var wire 1 w _T $end
     $var wire 1 z _GEN_11 $end
     $var wire 8 ", _GEN_14 $end
     $var wire 1 "0 io_sda $end
     $var wire 1 "2 io_intr $end
     $var wire 7 "A _GEN_13 $end
     $var wire 1 "B _GEN_1 $end
     $var wire 1 "H addr_read_write_bit $end
     $var wire 1 "P i2c $end
     $var wire 32 "S io_wdata $end
     $var wire 8 "\ _GEN_4 $end
     $var wire 1 "^ _GEN_16 $end
     $var wire 1 "a _GEN_10 $end
     $var wire 1 "b _GEN_19 $end
     $var wire 7 "j _GEN_7 $end
     $var wire 7 "u io_addr $end
     $var wire 8 "{ addr_data $end
     $var wire 7 "| addr_slave_addr $end
     $var wire 1 #$ _GEN_6 $end
     $var wire 8 #& _GEN_18 $end
     $var wire 1 #/ _GEN_0 $end
     $var wire 1 #1 _GEN_12 $end
     $var wire 8 #5 _GEN_9 $end
     $var wire 1 #8 clock $end
      $scope module i2c $end
       $var wire 15 # _GEN_5 $end
       $var wire 1 , io_i2c_intr $end
       $var wire 1 0 _io_i2c_sda_T_1 $end
       $var wire 1 3 _GEN_42 $end
       $var wire 3 : _GEN_45 $end
       $var wire 1 > io_i2c_sda $end
       $var wire 1 A _GEN_24 $end
       $var wire 7 B _io_i2c_sda_T $end
       $var wire 1 F i2c_scl_enable $end
       $var wire 15 G count $end
       $var wire 1 I _GEN_30 $end
       $var wire 3 M _GEN_27 $end
       $var wire 1 N reset $end
       $var wire 8 d io_data $end
       $var wire 15 e _GEN_50 $end
       $var wire 1 o _GEN_44 $end
       $var wire 1 p _GEN_1 $end
       $var wire 1 q intr_done $end
       $var wire 1 u _GEN_53 $end
       $var wire 3 | _GEN_32 $end
       $var wire 1 "" _GEN_29 $end
       $var wire 16 "# _count_T $end
       $var wire 3 "% _GEN_4 $end
       $var wire 1 "' clk $end
       $var wire 8 "( state $end
       $var wire 1 ") _GEN_20 $end
       $var wire 1 "* _GEN_35 $end
       $var wire 15 "- _count_T_1 $end
       $var wire 15 ". _GEN_41 $end
       $var wire 15 "/ _GEN_23 $end
       $var wire 3 "1 _GEN_17 $end
       $var wire 1 "3 _io_i2c_sda_T_3 $end
       $var wire 1 "6 io_read_write $end
       $var wire 8 "Q _io_i2c_sda_T_2 $end
       $var wire 15 "T _GEN_58 $end
       $var wire 1 "U _GEN_6 $end
       $var wire 1 "X _GEN_43 $end
       $var wire 1 "Y clock $end
       $var wire 1 "] io_i2c_scl $end
       $var wire 3 "_ _GEN_10 $end
       $var wire 1 "` _GEN_19 $end
       $var wire 1 "d _GEN_0 $end
       $var wire 4 "e _GEN_9 $end
       $var wire 1 "g _GEN_25 $end
       $var wire 1 "k _io_i2c_scl_T_1 $end
       $var wire 3 "m _GEN_40 $end
       $var wire 1 "n _GEN_34 $end
       $var wire 15 "o _GEN_28 $end
       $var wire 1 "q _GEN_13 $end
       $var wire 1 "s io_start $end
       $var wire 3 "} _GEN_22 $end
       $var wire 1 #" _io_i2c_scl_T $end
       $var wire 3 #' _GEN_51 $end
       $var wire 3 #. _GEN_2 $end
       $var wire 15 #3 _GEN_33 $end
       $var wire 7 #4 io_addr $end
      $upscope $end
    $upscope $end
  $upscope $end
  $scope module i2c_wrapper.i2c_top $end
  $upscope $end
$upscope $end
$enddefinitions $end
$dumpvars
b000000000000000 "/
0X
0C
0"7
0""
0"L
b00000000 b
0&
0#-
b00000000000000000000000000000000 n
b00000000 "(
0o
0"c
0R
0=
b00000000 d
b0000 "e
0"P
0#1
0"g
0V
0"J
0#+
b00000000000000000000000000000000 O
b000 #.
0"v
0m
b00000000000000000000000000000000 "I
b00000000000000000000000000000000 #*
b00000000000000000000000000000000 Q
b0000000 $
0g
0"F
b00000000 #5
0")
0L
0#!
b0000000 T
0D
0/
0x
0[
0F
0":
0)
0z
0"n
0r
0]
0#2
0"<
0H
0@
0+
b000000000000000 ".
b00000000000000000000000000000000 ;
0%
0v
0"U
b00000000000000000000000000000000 Z
0"8
b000 "m
0"l
0p
0"d
0"O
0#0
0>
0"2
0"f
0"4
b0000000000000000 "#
b000000000000000 G
0l
0"`
0"C
0#$
b000000000000000 "o
b0000 "&
b00000000 "Q
0"w
b000000000000000 #3
0{
0f
0#;
0"E
b000 "1
0I
04
b00000000000000000000000000000000 "~
b00000000 !
0`
0"*
b000 :
b000 "_
0w
0#7
b0000000 #4
00
0E
0"$
0(
b00000000000000000000000000000000 "r
b0000000 "j
1#6
1"@
0?
b000 #'
b00000000000000000000000000000000 "W
0"=
b000 M
b000000000000000 e
0u
b00000000 #&
0"k
b00000000000000000000000000000000 "S
b000 "%
0"N
0#/
0"9
b00000000 "\
0q
b00000000000000000000000000000000 j
0i
0"H
0"3
0#)
07
1~
0k
0N
09
b0000000 "?
b00000000000000000000000000000000 2
0"a
0P
0"D
0#%
03
0"'
b00000000000000000000000000000000 "h
b0000000 "A
b00000000000000000000000000000000 "K
b0000000 "u
b00000000000000000000000000000000 #,
0J
0-
0"z
0"]
0"+
b000 "}
0"t
0#8
0"B
b00000000000000000000000000000000 \
0##
01
b00000000000000000000000000000000 *
0"Y
b000000000000000 #
0"p
0_
0">
0"6
0"!
b00000000000000000000000000000000 "Z
b0000000 "|
0Y
0"M
0<
0'
b00000000000000000000000000000000 "i
b000 |
b0000000 c
0S
b00000000000000000000000000000000 "
b00000000000000000000000000000000 "V
0U
08
b0000000 t
b0000000 B
0"b
0"0
b00000000000000000000000000000000 5
0"y
b000000000000000 "T
0}
0h
0"q
0"G
b00000000000000000000000000000000 a
0K
0#(
0.
b00000000000000000000000000000000 "x
0"s
0"^
b00000000000000000000000000000000 "[
b00000000000000000000000000000000 #<
0#"
0y
0"X
0#9
b00000000 "{
0";
b00000000 ",
0s
0^
0"R
b000000000000000 "-
b00000000000000000000000000000000 W
0A
0,
0"5
b00000000 6
b00000000000000000000000000000000 #:
$end
#0
1f
1#"
b101 "_
14
1R
b011 "%
1"X
17
1"<
1N
1"k
b1111111111111111 "#
1#7
1+
1I
1":
b1000 "e
1w
1"g
b111111111111111 "-
1>
1"L
1"0
1"F
1l
1")
1#(
1"*
1"]
#1
0#"
1<
04
1#8
1"f
1"C
1'
1"Y
1x
07
1"'
0"<
1"R
1F
0"k
0"]
1"l
1"9
#6
0":
0<
14
0#8
0"C
0'
0"Y
17
0"'
1"<
0N
0"F
0l
0#(
1"k
1"]
#11
1#"
1<
0F
1#8
1"C
1'
1"Y
0"k
1"'
#16
0<
0#8
0"C
0'
0"Y
1"k
b00000000000000000000000000000100 "h
0"'
b00000000000000000000000000000100 ;
#21
1<
1#8
1"C
1'
1"Y
0"k
1"'
#26
0<
0#8
b00000000000000000000000001010101 5
0"C
0'
b00000000000000000000000001010101 W
0"Y
1"k
0"'
#31
1<
1#8
1"C
1'
1"Y
0"k
1"'
#36
0<
1%
1X
0#8
0"f
b00000000000000000000000000000100 "W
1#2
0"C
0'
1";
0"Y
0x
b00000000000000000000000001010101 a
1L
1[
0"'
1#;
1#-
b00000000000000000000000000000100 "
11
1"!
1"E
1"k
b00000000000000000000000001010101 "V
1"G
1"N
1#0
#41
1"+
1<
b1010101 "A
1"$
1#8
b0000100 "u
1J
1}
1"C
1K
b01010101 6
1"Y
b00000000000000000000000000000100 #:
1"'
b00000000000000000000000001010101 "Z
1/
b00000100 b
0"R
1"p
b1010101 c
b00000000000000000000000001010101 "S
1">
b00000000000000000000000000000100 "i
b0000100 "?
b00000000000000000000000001010101 *
0"k
0+
0"9
0"l
b1010101 t
1v
1.
1D
1"4
1'
b00000000000000000000000001010101 Z
1E
1(
b00000000000000000000000000000100 "~
1)
b00000000000000000000000001010101 \
1"D
1?
1@
b00000000000000000000000000000100 "x
1"y
b1010101 $
1"z
b00000000000000000000000000000100 "r
1m
b00000000000000000000000001010101 n
#46
0<
0#8
0"C
0'
0"Y
1"k
0L
0"'
0#;
#51
b00000000000000000000000001010101 Q
1<
1g
1#8
1"C
1"v
1"Y
1"'
10
b1010101 #4
b00000000000000000000000001010101 2
1]
1{
0"k
0"N
1"O
b1010101 B
1Y
b00000000000000000000000001010101 "I
b1010101 "|
1'
1#+
1"J
b00000000000000000000000001010101 "K
1s
1"c
b00000000000000000000000001010101 "[
19
b00000000000000000000000001010101 O
#56
0<
0#8
0"C
0'
0"Y
1"k
b00000000000000000000000000001000 "h
0"'
b00000000000000000000000000001000 ;
#61
b00000000000000000000000000000000 n
1<
1#8
0}
0K
b00000000 6
1"Y
b00000000000000000000000000000000 #:
1"'
b00000000000000000000000001010101 j
b00000000 b
0"p
b00000000000000000000000000000000 "S
b00000000000000000000000000000000 *
1"8
0{
0#0
1C
0.
0#2
b00000000000000000000000001010101 #*
b00000000000000000000000000000000 Z
0E
0(
b00000000000000000000000001010101 #,
b00000000000000000000000000000000 \
0?
1"w
0s
0"y
b0000000 $
0m
0"$
0g
b0000000 "u
0J
1"C
0";
0/
1"=
b00000000000000000000000000000000 "i
b0000000 "?
0]
0"k
1+
b0000000 t
0D
1'
0#+
1x
0"J
0)
0"D
0@
b00000000000000000000000000000000 "x
b00000000000000000000000001010101 #<
0"z
b00000000000000000000000000000000 "r
1#!
0"+
#66
0<
0#8
b00000000000000000000000000000000 5
0"C
0'
b00000000000000000000000000000000 W
0"Y
1"k
0"'
#71
b00000000000000000000000000000000 Q
1<
0C
1#8
1"f
0Y
1"C
0"v
1'
1"Y
1"'
b00000000000000000000000000000000 "K
1"R
0"=
0"w
0"c
b00000000000000000000000000000000 2
b00000000000000000000000000000000 "[
09
0"8
0"k
b00000000000000000000000000000000 O
1"9
1"l
0#!
0"O
#76
0<
0#8
0"f
b00000000000000000000000000001000 "W
1#2
0"C
0'
1";
0"Y
0x
b00000000000000000000000000000000 a
1L
0"'
1#;
b00000000000000000000000000001000 "
1"k
b00000000000000000000000000000000 "V
1"N
1#0
#81
1<
1"$
1#8
b0001000 "u
1J
1}
1"C
1K
1"Y
b00000000000000000000000000001000 #:
1"'
b00000000000000000000000000000000 "Z
1/
b00001000 b
0"R
1"p
b00000000000000000000000000001000 "i
b0001000 "?
b1010101 "j
0"k
0+
0"9
0"l
b1010101 t
1D
1'
1E
1(
b00000000000000000000000000001000 "~
1)
b1010101 T
1"D
1?
1@
b00000000000000000000000000001000 "x
1"y
1"z
b00000000000000000000000000001000 "r
1m
1"+
#86
0<
0#8
0"C
0'
0"Y
1"k
0L
0"'
0#;
#91
1<
1g
1#8
1Y
b00000000000000000000000000000000 "I
1"C
1"v
1'
1#+
1"Y
1"J
1"'
1s
1"c
19
1]
1{
0"k
0"N
1"O
#96
0<
0#8
0"C
0'
0"Y
1"k
b00000000000000000000000000010000 "h
0"'
b00000000000000000000000000010000 ;
#101
1<
0"$
1#8
0g
b0000000 "u
0J
0}
1"C
0K
0";
1"Y
b00000000000000000000000000000000 #:
1"'
b00000000000000000000000000000000 j
0/
b00000000 b
1"=
0"p
b00000000000000000000000000000000 "i
b0000000 "?
b0000000 "j
0]
1"8
0"k
0{
1+
b0000000 t
0#0
1C
0#2
0D
b00000000000000000000000000000000 #*
1'
0E
1x
0#+
0"J
0(
b00000000000000000000000000000000 #,
0)
b0000000 T
0"D
1"w
0?
0@
b00000000000000000000000000000000 "x
0s
b00000000000000000000000000000000 #<
0"y
0"z
b00000000000000000000000000000000 "r
0m
1#!
0"+
#106
0<
0#8
b00000000000000000000000010010001 5
0"C
0'
b00000000000000000000000010010001 W
0"Y
1"k
0"'
#111
1<
0C
1#8
1"f
0Y
1"C
0"v
1'
1"Y
1"'
1"R
0"=
0"w
0"c
09
0"8
0"k
1"9
1"l
0#!
0"O
#116
0<
0#8
0"f
b00000000000000000000000000010000 "W
1#2
0"C
0'
1";
0"Y
0x
b00000000000000000000000010010001 a
1L
0"'
1#;
b00000000000000000000000000010000 "
1"k
b00000000000000000000000010010001 "V
1"N
1#0
#121
1"+
1<
b10010001 ",
1"$
1#8
b0010000 "u
1J
1}
1"C
1K
b10010001 6
1"Y
b00000000000000000000000000010000 #:
1"'
b00000000000000000000000010010001 "Z
1/
b00010000 b
0"R
1"p
b00000000000000000000000010010001 "S
b00000000000000000000000000010000 "i
b10010001 #5
b0010000 "?
b1010101 "j
b00000000000000000000000010010001 *
0"k
0+
0"9
0"l
b1010101 t
1.
1D
1'
b00000000000000000000000010010001 Z
1E
1(
b00000000000000000000000000010000 "~
1)
b00000000000000000000000010010001 \
1"D
1?
1@
b00000000000000000000000000010000 "x
b10010001 #&
1"y
b0010001 $
b10010001 "\
1"z
b00000000000000000000000000010000 "r
1m
b00000000000000000000000010010001 n
#126
0<
0#8
0"C
0'
0"Y
1"k
0L
0"'
0#;
#131
b00000000000000000000000010010001 Q
1<
1g
1#8
1"C
1"v
1"Y
1"'
b10010001 d
b00000000000000000000000010010001 2
1]
1{
0"k
0"N
1"O
1"3
b10010001 "Q
1Y
b00000000000000000000000010010001 "I
1'
1#+
1"J
b00000000000000000000000010010001 "K
1s
1"c
b00000000000000000000000010010001 "[
19
b00000000000000000000000010010001 O
b10010001 "{
#136
0<
0#8
0"C
0'
0"Y
1"k
0"'
#141
b00000000000000000000000000000000 n
1<
1#8
0}
0K
b00000000 6
1"Y
b00000000000000000000000000000000 #:
1"'
b00000000000000000000000010010001 j
b00000000 b
0"p
b00000000000000000000000000000000 "S
b0000000 "j
b00000000000000000000000000000000 *
1"8
0{
0#0
1C
0.
0#2
b00000000000000000000000010010001 #*
b00000000000000000000000000000000 Z
0E
0(
b00000000000000000000000010010001 #,
b00000000000000000000000000000000 \
0?
1"w
0s
0"y
b0000000 $
b00000000 "\
0m
0"$
0g
b0000000 "u
0J
1"C
0";
0/
1"=
b00000000000000000000000000000000 "i
b00000000 #5
b0000000 "?
0]
0"k
1+
b0000000 t
0D
1'
0#+
1x
0"J
0)
0"D
0@
b00000000000000000000000000000000 "x
b00000000000000000000000010010001 #<
0"z
b00000000000000000000000000000000 "r
1#!
0"+
#146
0<
0#8
b00000000000000000000000000000001 5
0"C
0'
b00000000000000000000000000000001 W
0"Y
1"k
b00000000000000000000000000000000 "h
0"'
b00000000000000000000000000000000 ;
#151
b00000000000000000000000000000000 Q
1<
0C
1#8
1"f
0Y
1"C
0"v
1'
1"Y
1"'
b00000000000000000000000000000000 "K
1"R
0"=
0"w
0"c
b00000000000000000000000000000000 2
b00000000000000000000000000000000 "[
09
0"8
0"k
b00000000000000000000000000000000 O
1"9
1"l
0#!
0"O
#156
0<
0#8
0"f
b00000000000000000000000000000000 "W
1#2
0"C
0'
1";
0"Y
0x
b00000000000000000000000000000001 a
1L
0"'
1#;
b00000000000000000000000000000000 "
1"k
b00000000000000000000000000000001 "V
1"N
1#0
#161
1"+
1"^
1<
1"$
1#8
1J
1}
1"C
1K
b00000001 6
1"Y
1"'
b00000000000000000000000000000001 "Z
1/
0"R
1"p
b00000000000000000000000000000001 "S
b00000000000000000000000000000001 *
0"k
0+
0"9
0"l
1#1
1.
1D
1'
b00000000000000000000000000000001 Z
1E
1(
b00000000000000000000000000000000 "~
1)
b00000000000000000000000000000001 \
1"D
1?
1@
1"y
b0000001 $
1"z
1m
b00000000000000000000000000000001 n
#166
0<
0#8
0"C
0'
0"Y
1"k
0L
0"'
0#;
#171
b00000000000000000000000000000001 Q
1<
1g
1#8
1"C
1"v
1"Y
1"'
b00000000000000000000000000000001 2
1]
b001 #.
1{
0"k
0"N
1"O
1Y
b00000000000000000000000000000001 "I
1'
1#+
1"J
b00000000000000000000000000000001 "K
1s
1"c
1V
b001 #'
b00000000000000000000000000000001 "[
19
b00000000000000000000000000000001 O
b001 :
1"s
#176
0<
0#8
0"C
0'
0"Y
1"k
0"'
#181
b00000000000000000000000000000000 n
0f
1<
1#8
0}
0K
b00000000 6
1"Y
1"'
b00000000000000000000000000000001 j
0"p
b00000000000000000000000000000000 "S
b00000000000000000000000000000000 *
1"8
0{
0#0
1C
0.
0#2
b00000000000000000000000000000001 #*
b00000000000000000000000000000000 Z
0E
0(
b00000000000000000000000000000001 #,
b000000000000110 ".
b00000000000000000000000000000000 \
0?
1"w
0"0
0s
b00000001 "(
0"y
b0000000 $
0"*
0m
0"$
0g
0J
0"X
1"C
0";
0/
1"=
b000000000000110 "T
b000000000000110 e
0]
0"k
0#7
1+
b010 "m
0#1
0D
1'
0#+
1x
0"J
0>
0)
0"D
0@
b00000000000000000000000000000001 #<
b010 #'
0"z
b010 :
1#!
0"+
#186
0<
0#8
0"C
0'
0"Y
1"k
0"'
#191
1f
b00000000000000000000000000000000 Q
1<
b100 "_
1#8
b010 "%
1"X
1"C
0"v
1"Y
1"'
b000000000000110 "o
b000000000000101 #3
1"R
0"=
b000000000000101 "T
b000000000000110 G
b00000000000000000000000000000000 2
b000000000000101 e
0"8
0"k
b0000000000000101 "#
1#7
b010 |
1"l
1"9
1"d
0"O
b0000001 B
0C
0"3
1"f
b00000010 "Q
0Y
1'
b000000000000101 "-
1p
b00000000000000000000000000000000 "K
1>
b000000000000101 ".
b000000000000110 "/
0"w
1"0
0"c
b000000000000101 #
b00000010 "(
b00000000000000000000000000000000 "[
09
b00000000000000000000000000000000 O
1"*
0#!
#196
0<
0#8
0"C
0'
0"Y
1"k
0"'
#201
0f
0#"
1<
04
1#8
0"X
1"C
1"Y
07
1"'
0"<
b000000000000101 "o
b000000000000100 #3
00
1F
b000000000000100 "T
b000000000000101 G
b000000000000100 e
0"k
b0000000000000100 "#
0#7
0I
b0000010 B
b00000100 "Q
1'
b000000000000100 "-
0>
b000000000000100 ".
b000000000000101 "/
0"0
b000000000000100 #
0"*
0"]
#206
0<
14
0#8
0"C
0'
0"Y
1"k
17
0"'
1"]
1"<
#211
1f
1<
04
1#8
1"X
1"C
1"Y
07
1"'
0"<
b000000000000100 "o
b000000000000011 #3
10
b000000000000011 "T
b000000000000100 G
b000000000000011 e
0"k
b0000000000000011 "#
1#7
1I
b0000101 B
1"3
b00001001 "Q
1'
b000000000000011 "-
1>
b000000000000011 ".
b000000000000100 "/
1"0
b000000000000011 #
1"*
0"]
#216
0<
14
0#8
0"C
0'
0"Y
1"k
17
0"'
1"]
1"<
#221
0f
1<
04
1#8
0"X
1"C
1"Y
07
1"'
0"<
b000000000000011 "o
b000000000000010 #3
00
b000000000000010 "T
b000000000000011 G
b000000000000010 e
0"k
b0000000000000010 "#
0#7
0I
b0001010 B
0"3
b00010010 "Q
1'
b000000000000010 "-
0>
b000000000000010 ".
b000000000000011 "/
0"0
b000000000000010 #
0"*
0"]
#226
0<
14
0#8
0"C
0'
0"Y
1"k
17
0"'
1"]
1"<
#231
1f
1<
04
1#8
1"X
1"C
1"Y
07
1"'
0"<
b000000000000010 "o
b000000000000001 #3
10
b000000000000001 "T
b000000000000010 G
b000000000000001 e
0"k
b0000000000000001 "#
1#7
1I
b0010101 B
b00100100 "Q
1'
b000000000000001 "-
1>
b000000000000001 ".
b000000000000010 "/
1"0
b000000000000001 #
1"*
0"]
#236
0<
14
0#8
0"C
0'
0"Y
1"k
17
0"'
1"]
1"<
#241
0f
1<
04
1#8
0"X
1"C
1"Y
07
1"'
0"<
b000000000000001 "o
b000000000000000 #3
00
b000000000000000 "T
b000000000000001 G
b000000000000000 e
0"k
b0000000000000000 "#
0#7
0I
b0101010 B
b01001000 "Q
1'
b000000000000000 "-
0>
b000000000000000 ".
b000000000000001 "/
0"0
b000000000000000 #
0"*
0"]
#246
0<
14
0#8
0"C
0'
0"Y
1"k
17
0"'
1"]
1"<
#251
1f
1<
b101 "_
04
1#8
b011 "%
1"X
1"C
1"Y
07
1"'
0"<
b000000000000000 "o
10
b000000000000000 G
0"k
b1111111111111111 "#
1#7
1I
b011 |
b011 "m
b1010101 B
1"3
b10010001 "Q
1'
b111111111111111 "-
1>
b000000000000000 "/
1"0
b011 #'
b011 :
1"*
0"]
#256
0<
14
0#8
0"C
0'
0"Y
1"k
17
0"'
1"]
1"<
#261
0f
1<
04
1#8
0"X
1"C
1"Y
07
1"'
0"<
b000000000001000 "o
b100 M
b000000000001000 #3
b000000000001000 "T
b000000000001000 e
0"k
0#7
0I
b100 |
b100 "m
0"g
1'
0>
b000000000001000 ".
0"0
b00000011 "(
b100 #'
b100 :
0"*
0"]
#266
0<
14
0#8
0"C
0'
0"Y
1"k
17
0"'
1"]
1"<
#271
1<
b100 "_
04
1#8
b010 "%
1"C
1"Y
07
1"'
0"<
b000000000000111 "o
b000000000000111 #3
00
b000000000000111 "T
b000000000001000 G
b000000000000111 e
0"k
b0000000000000111 "#
b0000000 B
0"3
b00000000 "Q
1'
b100 "}
b000000000000111 "-
b000000000000111 ".
b000000000000111 "/
b000000000000111 #
b00000100 "(
0")
0"]
#276
0<
14
0#8
0"C
0'
0"Y
1"k
17
0"'
1"]
1"<
#281
1f
1<
04
1#8
1"X
1"C
1"Y
07
1"'
0"<
b000000000000110 "o
b000000000000110 #3
b000000000000110 "T
b000000000000111 G
b000000000000110 e
0"k
b0000000000000110 "#
1#7
1I
1"3
b00000001 "Q
1"g
1'
b000000000000110 "-
1>
b000000000000110 ".
b000000000000110 "/
1"0
b000000000000110 #
1")
1"*
0"]
#286
0<
14
0#8
0"C
0'
0"Y
1"k
17
0"'
1"]
1"<
#291
0f
1<
04
1#8
0"X
1"C
1"Y
07
1"'
0"<
b000000000000101 "o
b000000000000101 #3
10
b000000000000101 "T
b000000000000110 G
b000000000000101 e
0"k
b0000000000000101 "#
0#7
0I
b0000001 B
0"3
b00000010 "Q
0"g
1'
b000000000000101 "-
0>
b000000000000101 ".
b000000000000101 "/
0"0
b000000000000101 #
0")
0"*
0"]
#296
0<
14
0#8
0"C
0'
0"Y
1"k
17
0"'
1"]
1"<
#301
b0000010 B
1<
04
1#8
b00000100 "Q
1"C
1'
1"Y
b000000000000100 "-
07
1"'
0"<
b000000000000100 "o
b000000000000100 #3
b000000000000100 ".
00
b000000000000100 "/
b000000000000100 "T
b000000000000101 G
b000000000000100 #
b000000000000100 e
0"k
b0000000000000100 "#
0"]
#306
0<
14
0#8
0"C
0'
0"Y
1"k
17
0"'
1"]
1"<
#311
1f
1<
04
1#8
1"X
1"C
1"Y
07
1"'
0"<
b000000000000011 "o
b000000000000011 #3
10
b000000000000011 "T
b000000000000100 G
b000000000000011 e
0"k
b0000000000000011 "#
1#7
1I
b0000101 B
1"3
b00001001 "Q
1"g
1'
b000000000000011 "-
1>
b000000000000011 ".
b000000000000011 "/
1"0
b000000000000011 #
1")
1"*
0"]
#316
0<
14
0#8
0"C
0'
0"Y
1"k
17
0"'
1"]
1"<
#321
0f
1<
04
1#8
0"X
1"C
1"Y
07
1"'
0"<
b000000000000010 "o
b000000000000010 #3
00
b000000000000010 "T
b000000000000011 G
b000000000000010 e
0"k
b0000000000000010 "#
0#7
0I
b0001010 B
0"3
b00010010 "Q
0"g
1'
b000000000000010 "-
0>
b000000000000010 ".
b000000000000010 "/
0"0
b000000000000010 #
0")
0"*
0"]
#326
0<
14
0#8
0"C
0'
0"Y
1"k
17
0"'
1"]
1"<
#331
b0010101 B
1<
04
1#8
b00100100 "Q
1"C
1'
1"Y
b000000000000001 "-
07
1"'
0"<
b000000000000001 "o
b000000000000001 #3
b000000000000001 ".
10
b000000000000001 "/
b000000000000001 "T
b000000000000010 G
b000000000000001 #
b000000000000001 e
0"k
b0000000000000001 "#
0"]
#336
0<
14
0#8
0"C
0'
0"Y
1"k
17
0"'
1"]
1"<
