test_run_dir/i2c_TEST/I2C_Top.vcd
$version Generated by VerilatedVcd $end
$date Sun Apr 17 18:05:21 2022 $end
$timescale 1ps $end

 $scope module TOP $end
  $var wire  1 ? clock $end
  $var wire  7 B io_addr [6:0] $end
  $var wire  8 I io_data_out [7:0] $end
  $var wire  1 J io_intr $end
  $var wire  1 G io_ready $end
  $var wire  1 C io_ren $end
  $var wire  1 F io_scl $end
  $var wire  1 E io_sda $end
  $var wire  1 H io_stop $end
  $var wire 32 A io_wdata [31:0] $end
  $var wire  1 D io_we $end
  $var wire  1 @ reset $end
  $scope module I2C_Top $end
   $var wire  8 % addr_data [7:0] $end
   $var wire  7 $ addr_slave_addr [6:0] $end
   $var wire  1 # addr_start_bit $end
   $var wire  1 ? clock $end
   $var wire  1 ? i2c_master_clock $end
   $var wire  7 $ i2c_master_io_addr [6:0] $end
   $var wire  8 % i2c_master_io_data [7:0] $end
   $var wire  1 ' i2c_master_io_i2c_intr $end
   $var wire  1 L i2c_master_io_i2c_scl $end
   $var wire  1 K i2c_master_io_i2c_sda $end
   $var wire  1 & i2c_master_io_i2c_sda_in $end
   $var wire  1 M i2c_master_io_ready $end
   $var wire  1 # i2c_master_io_start $end
   $var wire  1 N i2c_master_io_stop $end
   $var wire  1 @ i2c_master_reset $end
   $var wire  1 ? i2c_slave_clock $end
   $var wire  8 ( i2c_slave_io_data_out [7:0] $end
   $var wire  1 M i2c_slave_io_ready $end
   $var wire  1 K i2c_slave_io_sda_in $end
   $var wire  1 & i2c_slave_io_sda_out $end
   $var wire  1 @ i2c_slave_reset $end
   $var wire  7 B io_addr [6:0] $end
   $var wire  8 I io_data_out [7:0] $end
   $var wire  1 J io_intr $end
   $var wire  1 G io_ready $end
   $var wire  1 C io_ren $end
   $var wire  1 F io_scl $end
   $var wire  1 E io_sda $end
   $var wire  1 H io_stop $end
   $var wire 32 A io_wdata [31:0] $end
   $var wire  1 D io_we $end
   $var wire  1 @ reset $end
   $scope module i2c_master $end
    $var wire  1 ? clock $end
    $var wire 15 * count [14:0] $end
    $var wire  1 , i2c_scl_enable $end
    $var wire  1 ' intr_done $end
    $var wire  7 $ io_addr [6:0] $end
    $var wire  8 % io_data [7:0] $end
    $var wire  1 ' io_i2c_intr $end
    $var wire  1 L io_i2c_scl $end
    $var wire  1 K io_i2c_sda $end
    $var wire  1 & io_i2c_sda_in $end
    $var wire  1 M io_ready $end
    $var wire  1 # io_start $end
    $var wire  1 N io_stop $end
    $var wire  1 @ reset $end
    $var wire  7 + saved_addr [6:0] $end
    $var wire  8 ) state [7:0] $end
   $upscope $end
   $scope module i2c_slave $end
    $var wire  1 / addr_bit1 $end
    $var wire  1 0 addr_bit2 $end
    $var wire  1 1 addr_bit3 $end
    $var wire  1 2 addr_bit4 $end
    $var wire  1 3 addr_bit5 $end
    $var wire  1 4 addr_bit6 $end
    $var wire  1 5 addr_bit7 $end
    $var wire  1 ? clock $end
    $var wire  7 6 complete_addr [6:0] $end
    $var wire  8 - count [7:0] $end
    $var wire  8 ( data [7:0] $end
    $var wire  1 7 data_bit1 $end
    $var wire  1 8 data_bit2 $end
    $var wire  1 9 data_bit3 $end
    $var wire  1 : data_bit4 $end
    $var wire  1 ; data_bit5 $end
    $var wire  1 < data_bit6 $end
    $var wire  1 = data_bit7 $end
    $var wire  1 > data_bit8 $end
    $var wire  8 ( io_data_out [7:0] $end
    $var wire  1 M io_ready $end
    $var wire  1 K io_sda_in $end
    $var wire  1 & io_sda_out $end
    $var wire  1 @ reset $end
    $var wire  8 . rx_state [7:0] $end
   $upscope $end
  $upscope $end
 $upscope $end
$enddefinitions $end


#0
0#
b0000000 $
b00000000 %
0&
0'
b00000000 (
b00000000 )
b000000000000000 *
b0000000 +
0,
b00000000 -
b00000000 .
0/
00
01
02
03
04
05
b0000000 6
07
08
09
0:
0;
0<
0=
0>
0?
1@
b00000000000000000000000000000000 A
b0000000 B
0C
0D
1E
1F
0G
0H
b00000000 I
0J
1K
1L
0M
0N
#1
1,
b00000001 -
1?
0F
0L
#2
0?
0@
1D
1F
1L
#3
0,
1?
#4
0?
b0000100 B
#5
1?
#6
0?
b00000000000000000000000001100011 A
#7
b1100011 $
1?
#8
0?
b0001000 B
#9
1?
#10
0?
b00000000000000000000000000000000 A
#11
1?
#12
0?
b0000000 B
#13
1?
#14
0?
b00000000000000000000000000000001 A
#15
1#
1?
#16
0?
b0010000 B
#17
b00000001 %
b00000001 )
1?
0E
1G
0K
1M
#18
0?
b00000000000000000000000010111001 A
#19
b10111001 %
b00000010 )
b000000000000110 *
b1100011 +
b00000001 .
1?
1E
0G
1K
0M
#20
0?
b0000000 B
#21
b000000000000101 *
1,
b00000010 -
1/
1?
0F
0L
#22
0?
b00000000000000000000000000000000 A
1F
1L
#23
0#
b000000000000100 *
b00000011 -
10
1?
0E
0F
0K
0L
#24
0?
1F
1L
#25
b000000000000011 *
b00000100 -
1?
0F
0L
#26
0?
1F
1L
#27
b000000000000010 *
b00000101 -
1?
0F
0L
#28
0?
1F
1L
#29
b000000000000001 *
b00000110 -
1?
1E
0F
1K
0L
#30
0?
1F
1L
#31
b000000000000000 *
b00000111 -
14
1?
0F
0L
#32
0?
1F
1L
#33
b00000011 )
b00001000 -
15
1?
0E
0F
0K
0L
#34
0?
1F
1L
#35
b00000100 )
b00000010 .
b1100011 6
1?
0F
0L
#36
0?
1F
1L
#37
b00000101 )
b000000000000111 *
b00000011 .
1?
1E
0F
1K
0L
#38
0?
1F
1L
#39
b000000000000110 *
b00001001 -
17
1?
0E
0F
0K
0L
#40
0?
1F
1L
#41
b000000000000101 *
b00001010 -
1?
1E
0F
1K
0L
#42
0?
1F
1L
#43
b000000000000100 *
b00001011 -
19
1?
0F
0L
#44
0?
1F
1L
#45
b000000000000011 *
b00001100 -
1:
1?
0F
0L
#46
0?
1F
1L
#47
b000000000000010 *
b00001101 -
1;
1?
0E
0F
0K
0L
#48
0?
1F
1L
#49
b000000000000001 *
b00001110 -
1?
0F
0L
#50
0?
1F
1L
#51
b000000000000000 *
b00001111 -
1?
1E
0F
1K
0L
#52
0?
1F
1L
#53
b00000110 )
b00010000 -
1>
1?
0E
0F
0K
0L
#54
0?
1F
1L
#55
b10111001 (
b00000111 )
b00000100 .
1?
1E
0F
1H
b10111001 I
1K
0L
1N
#56
0?
1F
1L
#57
1'
b00000000 )
0,
b00000000 -
b00000000 .
1?
0H
1J
0N
#58
0?
#59
0'
1?
0J
