test_run_dir/I2C_top_Test/I2C_Top.vcd
$version Generated by VerilatedVcd $end
$date Sat Apr 30 16:51:01 2022 $end
$timescale 1ps $end

 $scope module TOP $end
  $var wire  1 - clock $end
  $var wire  7 0 io_addr [6:0] $end
  $var wire  1 8 io_intr $end
  $var wire  1 6 io_ready $end
  $var wire  1 1 io_ren $end
  $var wire  1 5 io_scl $end
  $var wire  1 4 io_sda $end
  $var wire  1 3 io_sda_in $end
  $var wire  1 7 io_stop $end
  $var wire 32 / io_wdata [31:0] $end
  $var wire  1 2 io_we $end
  $var wire  1 . reset $end
  $scope module I2C_Top $end
   $var wire  8 % addr_data [7:0] $end
   $var wire  1 & addr_read_write_bit $end
   $var wire  1 ' addr_sda_in $end
   $var wire  7 $ addr_slave_addr [6:0] $end
   $var wire  1 # addr_start_bit $end
   $var wire  1 - clock $end
   $var wire  1 - i2c_master_clock $end
   $var wire  7 $ i2c_master_io_addr [6:0] $end
   $var wire  8 % i2c_master_io_data [7:0] $end
   $var wire  1 ( i2c_master_io_i2c_intr $end
   $var wire  1 : i2c_master_io_i2c_scl $end
   $var wire  1 9 i2c_master_io_i2c_sda $end
   $var wire  1 ' i2c_master_io_i2c_sda_in $end
   $var wire  1 & i2c_master_io_read_write $end
   $var wire  1 ; i2c_master_io_ready $end
   $var wire  1 # i2c_master_io_start $end
   $var wire  1 < i2c_master_io_stop $end
   $var wire  1 . i2c_master_reset $end
   $var wire  7 0 io_addr [6:0] $end
   $var wire  1 8 io_intr $end
   $var wire  1 6 io_ready $end
   $var wire  1 1 io_ren $end
   $var wire  1 5 io_scl $end
   $var wire  1 4 io_sda $end
   $var wire  1 3 io_sda_in $end
   $var wire  1 7 io_stop $end
   $var wire 32 / io_wdata [31:0] $end
   $var wire  1 2 io_we $end
   $var wire  1 . reset $end
   $scope module i2c_master $end
    $var wire  1 - clock $end
    $var wire 15 * count [14:0] $end
    $var wire  1 , i2c_scl_enable $end
    $var wire  1 ( intr_done $end
    $var wire  7 $ io_addr [6:0] $end
    $var wire  8 % io_data [7:0] $end
    $var wire  1 ( io_i2c_intr $end
    $var wire  1 : io_i2c_scl $end
    $var wire  1 9 io_i2c_sda $end
    $var wire  1 ' io_i2c_sda_in $end
    $var wire  1 & io_read_write $end
    $var wire  1 ; io_ready $end
    $var wire  1 # io_start $end
    $var wire  1 < io_stop $end
    $var wire  1 . reset $end
    $var wire  7 + saved_addr [6:0] $end
    $var wire  8 ) state [7:0] $end
   $upscope $end
  $upscope $end
 $upscope $end
$enddefinitions $end


#0
0#
b0000000 $
b00000000 %
0&
0'
0(
b00000000 )
b000000000000000 *
b0000000 +
0,
0-
1.
b00000000000000000000000000000000 /
b0000000 0
01
02
03
14
15
06
07
08
19
1:
0;
0<
#1
1'
1,
1-
05
0:
#2
0-
0.
12
15
1:
#3
0,
1-
#4
0-
b0000100 0
#5
1-
#6
0-
b00000000000000000000000001100011 /
#7
b1100011 $
1-
#8
0-
b0001000 0
#9
1&
1-
#10
0-
b00000000000000000000000000000000 /
#11
0&
1-
#12
0-
b0000000 0
#13
1-
#14
0-
b00000000000000000000000000000001 /
#15
1#
1-
#16
0-
#17
b00000001 )
1-
04
16
09
1;
#18
0-
#19
b00000010 )
b000000000000110 *
b1100011 +
1-
14
06
19
0;
#20
0-
#21
b000000000000101 *
1,
1-
05
0:
#22
0-
15
1:
#23
b000000000000100 *
1-
04
05
09
0:
#24
0-
15
1:
#25
b000000000000011 *
1-
05
0:
#26
0-
15
1:
#27
b000000000000010 *
1-
05
0:
#28
0-
15
1:
#29
b000000000000001 *
1-
14
05
19
0:
#30
0-
15
1:
#31
b000000000000000 *
1-
05
0:
#32
0-
b00000000000000000000000000000000 /
b0001100 0
15
1:
#33
0'
b00000011 )
1-
04
05
09
0:
#34
0-
b0010000 0
15
1:
#35
b00000100 )
1-
05
0:
#36
0-
b00000000000000000000000010111001 /
15
1:
#37
b10111001 %
b00000101 )
b000000000000111 *
1-
14
05
19
0:
#38
0-
b0000000 0
15
1:
#39
b000000000000110 *
1-
04
05
09
0:
#40
0-
b00000000000000000000000000000000 /
15
1:
#41
0#
b000000000000101 *
1-
14
05
19
0:
#42
0-
15
1:
#43
b000000000000100 *
1-
05
0:
#44
0-
15
1:
#45
b000000000000011 *
1-
05
0:
#46
0-
15
1:
#47
b000000000000010 *
1-
04
05
09
0:
#48
0-
15
1:
#49
b000000000000001 *
1-
05
0:
#50
0-
b0001100 0
15
1:
#51
b000000000000000 *
1-
14
05
19
0:
#52
0-
15
1:
#53
b00000110 )
1-
04
05
09
0:
#54
0-
15
1:
#55
b00000111 )
1-
14
05
17
19
0:
1<
#56
0-
15
1:
#57
1(
b00000000 )
0,
1-
07
18
0<
#58
0-
#59
0(
1-
08
