test_run_dir/i2c_Top_TEST/I2C_Top.vcd
$version Generated by VerilatedVcd $end
$date Mon Mar 28 16:50:13 2022
 $end
$timescale   1ns $end

 $scope module TOP $end
  $var wire  1 k clock $end
  $var wire  7 %! io_addr [6:0] $end
  $var wire  1 =! io_intr $end
  $var wire  1 5! io_scl $end
  $var wire  1 -! io_sda $end
  $var wire 32 { io_wdata [31:0] $end
  $var wire  1 s reset $end
  $scope module I2C_Top $end
   $var wire  8 3 addr_data [7:0] $end
   $var wire  1 C addr_data_ack $end
   $var wire  1 ; addr_read_write_bit $end
   $var wire  7 + addr_slave_addr [6:0] $end
   $var wire  1 # addr_start_bit $end
   $var wire  1 k clock $end
   $var wire  1 k i2c_clock $end
   $var wire  7 + i2c_io_addr [6:0] $end
   $var wire  8 3 i2c_io_data [7:0] $end
   $var wire  1 C i2c_io_data_ack $end
   $var wire  1 K i2c_io_i2c_intr $end
   $var wire  1 M! i2c_io_i2c_scl $end
   $var wire  1 E! i2c_io_i2c_sda $end
   $var wire  1 ; i2c_io_read_write $end
   $var wire  1 # i2c_io_start $end
   $var wire  1 s i2c_reset $end
   $var wire  7 %! io_addr [6:0] $end
   $var wire  1 =! io_intr $end
   $var wire  1 5! io_scl $end
   $var wire  1 -! io_sda $end
   $var wire 32 { io_wdata [31:0] $end
   $var wire  1 s reset $end
   $scope module i2c $end
    $var wire  1 k clock $end
    $var wire 15 [ count [14:0] $end
    $var wire  1 c i2c_scl_enable $end
    $var wire  1 K intr_done $end
    $var wire  7 + io_addr [6:0] $end
    $var wire  8 3 io_data [7:0] $end
    $var wire  1 C io_data_ack $end
    $var wire  1 K io_i2c_intr $end
    $var wire  1 M! io_i2c_scl $end
    $var wire  1 E! io_i2c_sda $end
    $var wire  1 ; io_read_write $end
    $var wire  1 # io_start $end
    $var wire  1 s reset $end
    $var wire  8 S state [7:0] $end
   $upscope $end
  $upscope $end
 $upscope $end
$enddefinitions $end


#0
0#
b0000000 +
b00000000 3
0;
0C
0K
b00000000 S
b000000000000000 [
0c
0k
1s
b00000000000000000000000000000000 {
b0000000 %!
1-!
15!
0=!
1E!
1M!
#1
1c
1k
05!
0M!
#2
0k
0s
15!
1M!
#3
0c
1k
#4
0k
b00000000000000000000000000000001 {
#5
1#
1k
#6
0k
b0000100 %!
#7
b0000001 +
b00000001 S
1k
0-!
0E!
#8
0k
b00000000000000000000000001100011 {
#9
b1100011 +
b00000010 S
b000000000000110 [
1k
1-!
1E!
#10
0k
b0001000 %!
#11
1;
b000000000000101 [
1c
1k
05!
0M!
#12
0k
b00000000000000000000000000000000 {
15!
1M!
#13
0;
b000000000000100 [
1k
0-!
05!
0E!
0M!
#14
0k
b0001100 %!
15!
1M!
#15
b000000000000011 [
1k
05!
0M!
#16
0k
15!
1M!
#17
b000000000000010 [
1k
05!
0M!
#18
0k
b0010000 %!
15!
1M!
#19
b000000000000001 [
1k
1-!
05!
1E!
0M!
#20
0k
b00000000000000000000000010000111 {
15!
1M!
#21
b10000111 3
b000000000000000 [
1k
05!
0M!
#22
0k
b0010100 %!
15!
1M!
#23
1C
b00000011 S
1k
0-!
05!
0E!
0M!
#24
0k
b00000000000000000000000000000000 {
15!
1M!
#25
0C
b00000100 S
b000000000001000 [
1k
05!
0M!
#26
0k
15!
1M!
#27
b000000000000111 [
1k
1-!
05!
1E!
0M!
#28
0k
15!
1M!
#29
b000000000000110 [
1k
0-!
05!
0E!
0M!
#30
0k
15!
1M!
#31
b000000000000101 [
1k
05!
0M!
#32
0k
15!
1M!
#33
b000000000000100 [
1k
05!
0M!
#34
0k
15!
1M!
#35
b000000000000011 [
1k
05!
0M!
#36
0k
15!
1M!
#37
b000000000000010 [
1k
1-!
05!
1E!
0M!
#38
0k
15!
1M!
#39
b000000000000001 [
1k
05!
0M!
#40
0k
15!
1M!
#41
b000000000000000 [
1k
05!
0M!
#42
0k
15!
1M!
#43
b00000101 S
1k
0-!
05!
0E!
0M!
#44
0k
15!
1M!
#45
b00000110 S
1k
1-!
05!
1E!
0M!
#46
0k
15!
1M!
#47
1K
b00000000 S
0c
1k
1=!
#48
0k
#49
0K
b00000001 S
1k
0-!
0=!
0E!
#50
0k
#51
b00000010 S
b000000000000110 [
1k
1-!
1E!
#52
0k
#53
b000000000000101 [
1c
1k
05!
0M!
#54
0k
15!
1M!
#55
b000000000000100 [
1k
0-!
05!
0E!
0M!
#56
0k
15!
1M!
#57
b000000000000011 [
1k
05!
0M!
#58
0k
15!
1M!
#59
b000000000000010 [
1k
05!
0M!
#60
0k
15!
1M!
#61
b000000000000001 [
1k
1-!
05!
1E!
0M!
#62
0k
15!
1M!
#63
b000000000000000 [
1k
05!
0M!
#64
0k
15!
1M!
#65
b00000011 S
1k
0-!
05!
0E!
0M!
#66
0k
15!
1M!
#67
b00000100 S
b000000000001000 [
1k
05!
0M!
#68
0k
15!
1M!
#69
b000000000000111 [
1k
1-!
05!
1E!
0M!
#70
0k
15!
1M!
#71
b000000000000110 [
1k
0-!
05!
0E!
0M!
#72
0k
15!
1M!
#73
b000000000000101 [
1k
05!
0M!
#74
0k
15!
1M!
#75
b000000000000100 [
1k
05!
0M!
#76
0k
15!
1M!
#77
b000000000000011 [
1k
05!
0M!
#78
0k
15!
1M!
#79
b000000000000010 [
1k
1-!
05!
1E!
0M!
#80
0k
15!
1M!
#81
b000000000000001 [
1k
05!
0M!
#82
0k
15!
1M!
#83
b000000000000000 [
1k
05!
0M!
#84
0k
15!
1M!
#85
b00000101 S
1k
0-!
05!
0E!
0M!
#86
0k
15!
1M!
#87
b00000110 S
1k
1-!
05!
1E!
0M!
#88
0k
15!
1M!
#89
1K
b00000000 S
0c
1k
1=!
#90
0k
#91
0K
b00000001 S
1k
0-!
0=!
0E!
#92
0k
#93
b00000010 S
b000000000000110 [
1k
1-!
1E!
#94
0k
#95
b000000000000101 [
1c
1k
05!
0M!
#96
0k
15!
1M!
#97
b000000000000100 [
1k
0-!
05!
0E!
0M!
#98
0k
15!
1M!
#99
b000000000000011 [
1k
05!
0M!
#100
0k
15!
1M!
#101
b000000000000010 [
1k
05!
0M!
#102
0k
15!
1M!
#103
b000000000000001 [
1k
1-!
05!
1E!
0M!
#104
0k
15!
1M!
#105
b000000000000000 [
1k
05!
0M!
#106
0k
15!
1M!
#107
b00000011 S
1k
0-!
05!
0E!
0M!
#108
0k
15!
1M!
#109
b00000100 S
b000000000001000 [
1k
05!
0M!
#110
0k
15!
1M!
#111
b000000000000111 [
1k
1-!
05!
1E!
0M!
#112
0k
15!
1M!
#113
b000000000000110 [
1k
0-!
05!
0E!
0M!
#114
0k
15!
1M!
#115
b000000000000101 [
1k
05!
0M!
#116
0k
15!
1M!
#117
b000000000000100 [
1k
05!
0M!
#118
0k
15!
1M!
#119
b000000000000011 [
1k
05!
0M!
#120
0k
15!
1M!
#121
b000000000000010 [
1k
1-!
05!
1E!
0M!
#122
0k
15!
1M!
#123
b000000000000001 [
1k
05!
0M!
#124
0k
15!
1M!
#125
b000000000000000 [
1k
05!
0M!
#126
0k
b0000000 %!
15!
1M!
#127
0#
b00000101 S
1k
0-!
05!
0E!
0M!
