test_run_dir/i2c_Top_TEST/I2C_Top.vcd
$version Generated by VerilatedVcd $end
$date Wed Mar 30 12:04:40 2022
 $end
$timescale   1ns $end

 $scope module TOP $end
  $var wire  1 k clock $end
  $var wire  7 %! io_addr [6:0] $end
  $var wire  1 U! io_intr $end
  $var wire  1 -! io_ren $end
  $var wire  1 M! io_scl $end
  $var wire  1 E! io_sda $end
  $var wire  1 =! io_sda_in $end
  $var wire 32 { io_wdata [31:0] $end
  $var wire  1 5! io_we $end
  $var wire  1 s reset $end
  $scope module I2C_Top $end
   $var wire  8 3 addr_data [7:0] $end
   $var wire  1 ; addr_read_write_bit $end
   $var wire  1 C addr_sda_in $end
   $var wire  7 + addr_slave_addr [6:0] $end
   $var wire  1 # addr_start_bit $end
   $var wire  1 k clock $end
   $var wire  1 k i2c_clock $end
   $var wire  7 + i2c_io_addr [6:0] $end
   $var wire  8 3 i2c_io_data [7:0] $end
   $var wire  1 K i2c_io_i2c_intr $end
   $var wire  1 e! i2c_io_i2c_scl $end
   $var wire  1 ]! i2c_io_i2c_sda $end
   $var wire  1 C i2c_io_i2c_sda_in $end
   $var wire  1 ; i2c_io_read_write $end
   $var wire  1 # i2c_io_start $end
   $var wire  1 s i2c_reset $end
   $var wire  7 %! io_addr [6:0] $end
   $var wire  1 U! io_intr $end
   $var wire  1 -! io_ren $end
   $var wire  1 M! io_scl $end
   $var wire  1 E! io_sda $end
   $var wire  1 =! io_sda_in $end
   $var wire 32 { io_wdata [31:0] $end
   $var wire  1 5! io_we $end
   $var wire  1 s reset $end
   $scope module i2c $end
    $var wire  1 k clock $end
    $var wire 15 [ count [14:0] $end
    $var wire  1 c i2c_scl_enable $end
    $var wire  1 K intr_done $end
    $var wire  7 + io_addr [6:0] $end
    $var wire  8 3 io_data [7:0] $end
    $var wire  1 K io_i2c_intr $end
    $var wire  1 e! io_i2c_scl $end
    $var wire  1 ]! io_i2c_sda $end
    $var wire  1 C io_i2c_sda_in $end
    $var wire  1 ; io_read_write $end
    $var wire  1 # io_start $end
    $var wire  1 s reset $end
    $var wire  8 S state [7:0] $end
   $upscope $end
  $upscope $end
 $upscope $end
$enddefinitions $end


#0
0#
b0000000 +
b00000000 3
0;
0C
0K
b00000000 S
b000000000000000 [
0c
0k
1s
b00000000000000000000000000000000 {
b0000000 %!
0-!
05!
0=!
1E!
1M!
0U!
1]!
1e!
#1
1c
1k
0M!
0e!
#2
0k
0s
15!
1M!
1e!
#3
0c
1k
#4
0k
b0000100 %!
#5
1k
#6
0k
b00000000000000000000000001001110 {
#7
b1001110 +
1k
#8
0k
b0001000 %!
#9
1k
#10
0k
b00000000000000000000000000000000 {
#11
1k
#12
0k
b0000000 %!
#13
1k
#14
0k
b00000000000000000000000000000001 {
#15
1#
1k
#16
0k
#17
b00000001 S
1k
0E!
0]!
#18
0k
#19
b00000010 S
b000000000000110 [
1k
1E!
1]!
#20
0k
#21
b000000000000101 [
1c
1k
0E!
0M!
0]!
0e!
#22
0k
1M!
1e!
#23
b000000000000100 [
1k
0M!
0e!
#24
0k
1M!
1e!
#25
b000000000000011 [
1k
1E!
0M!
1]!
0e!
#26
0k
1M!
1e!
#27
b000000000000010 [
1k
0M!
0e!
#28
0k
1M!
1e!
#29
b000000000000001 [
1k
0M!
0e!
#30
0k
1M!
1e!
#31
b000000000000000 [
1k
0E!
0M!
0]!
0e!
#32
0k
b0001100 %!
1M!
1e!
#33
1C
b00000011 S
1k
0M!
0e!
#34
0k
1M!
1e!
#35
b00000100 S
b000000000001000 [
1k
1E!
0M!
1]!
0e!
#36
0k
05!
1M!
1e!
#37
b00000111 S
1k
0M!
0e!
#38
0k
1M!
1e!
#39
1K
b00000000 S
0c
1k
1U!
#40
0k
#41
0K
b00000001 S
1k
0E!
0U!
0]!
#42
0k
#43
b00000010 S
b000000000000110 [
1k
1E!
1]!
#44
0k
#45
b000000000000101 [
1c
1k
0E!
0M!
0]!
0e!
#46
0k
1M!
1e!
#47
b000000000000100 [
1k
0M!
0e!
#48
0k
1M!
1e!
#49
b000000000000011 [
1k
1E!
0M!
1]!
0e!
#50
0k
1M!
1e!
#51
b000000000000010 [
1k
0M!
0e!
#52
0k
1M!
1e!
#53
b000000000000001 [
1k
0M!
0e!
#54
0k
1M!
1e!
#55
b000000000000000 [
1k
0E!
0M!
0]!
0e!
#56
0k
1M!
1e!
#57
b00000011 S
1k
0M!
0e!
#58
0k
1M!
1e!
#59
b00000100 S
b000000000001000 [
1k
1E!
0M!
1]!
0e!
#60
0k
1M!
1e!
#61
b00000111 S
1k
0M!
0e!
#62
0k
1M!
1e!
#63
1K
b00000000 S
0c
1k
1U!
#64
0k
#65
0K
b00000001 S
1k
0E!
0U!
0]!
#66
0k
#67
b00000010 S
b000000000000110 [
1k
1E!
1]!
#68
0k
#69
b000000000000101 [
1c
1k
0E!
0M!
0]!
0e!
#70
0k
1M!
1e!
#71
b000000000000100 [
1k
0M!
0e!
#72
0k
1M!
1e!
#73
b000000000000011 [
1k
1E!
0M!
1]!
0e!
#74
0k
1M!
1e!
#75
b000000000000010 [
1k
0M!
0e!
#76
0k
1M!
1e!
#77
b000000000000001 [
1k
0M!
0e!
#78
0k
1M!
1e!
#79
b000000000000000 [
1k
0E!
0M!
0]!
0e!
#80
0k
1M!
1e!
#81
b00000011 S
1k
0M!
0e!
#82
0k
1M!
1e!
#83
b00000100 S
b000000000001000 [
1k
1E!
0M!
1]!
0e!
#84
0k
1M!
1e!
#85
b00000111 S
1k
0M!
0e!
#86
0k
1M!
1e!
#87
1K
b00000000 S
0c
1k
1U!
#88
0k
#89
0K
b00000001 S
1k
0E!
0U!
0]!
#90
0k
#91
b00000010 S
b000000000000110 [
1k
1E!
1]!
#92
0k
#93
b000000000000101 [
1c
1k
0E!
0M!
0]!
0e!
#94
0k
1M!
1e!
#95
b000000000000100 [
1k
0M!
0e!
#96
0k
1M!
1e!
#97
b000000000000011 [
1k
1E!
0M!
1]!
0e!
#98
0k
1M!
1e!
#99
b000000000000010 [
1k
0M!
0e!
#100
0k
1M!
1e!
#101
b000000000000001 [
1k
0M!
0e!
#102
0k
1M!
1e!
#103
b000000000000000 [
1k
0E!
0M!
0]!
0e!
#104
0k
1M!
1e!
#105
b00000011 S
1k
0M!
0e!
#106
0k
1M!
1e!
#107
b00000100 S
b000000000001000 [
1k
1E!
0M!
1]!
0e!
#108
0k
1M!
1e!
#109
b00000111 S
1k
0M!
0e!
#110
0k
1M!
1e!
#111
1K
b00000000 S
0c
1k
1U!
#112
0k
#113
0K
b00000001 S
1k
0E!
0U!
0]!
#114
0k
#115
b00000010 S
b000000000000110 [
1k
1E!
1]!
#116
0k
#117
b000000000000101 [
1c
1k
0E!
0M!
0]!
0e!
#118
0k
1M!
1e!
#119
b000000000000100 [
1k
0M!
0e!
#120
0k
1M!
1e!
#121
b000000000000011 [
1k
1E!
0M!
1]!
0e!
#122
0k
1M!
1e!
#123
b000000000000010 [
1k
0M!
0e!
#124
0k
1M!
1e!
#125
b000000000000001 [
1k
0M!
0e!
#126
0k
1M!
1e!
#127
b000000000000000 [
1k
0E!
0M!
0]!
0e!
#128
0k
1M!
1e!
#129
b00000011 S
1k
0M!
0e!
#130
0k
1M!
1e!
#131
b00000100 S
b000000000001000 [
1k
1E!
0M!
1]!
0e!
#132
0k
1M!
1e!
#133
b00000111 S
1k
0M!
0e!
#134
0k
1M!
1e!
#135
1K
b00000000 S
0c
1k
1U!
#136
0k
b00000000000000000000000000000000 {
b0000000 %!
#137
0K
b00000001 S
1k
0E!
0U!
0]!
