test_run_dir/i2c_Top_TEST/I2C_Top.vcd
$version Generated by VerilatedVcd $end
$date Sun Mar 27 17:10:28 2022 $end
$timescale 1ps $end

 $scope module TOP $end
  $var wire  1 + clock $end
  $var wire  7 . io_addr [6:0] $end
  $var wire  1 0 io_scl $end
  $var wire  1 / io_sda $end
  $var wire 32 - io_wdata [31:0] $end
  $var wire  1 , reset $end
  $scope module I2C_Top $end
   $var wire  8 % addr_data [7:0] $end
   $var wire  1 ' addr_data_ack $end
   $var wire  1 & addr_read_write_bit $end
   $var wire  7 $ addr_slave_addr [6:0] $end
   $var wire  1 # addr_start_bit $end
   $var wire  1 + clock $end
   $var wire  1 + i2c_clock $end
   $var wire  7 $ i2c_io_addr [6:0] $end
   $var wire  8 % i2c_io_data [7:0] $end
   $var wire  1 ' i2c_io_data_ack $end
   $var wire  1 2 i2c_io_i2c_scl $end
   $var wire  1 1 i2c_io_i2c_sda $end
   $var wire  1 & i2c_io_read_write $end
   $var wire  1 # i2c_io_start $end
   $var wire  1 , i2c_reset $end
   $var wire  7 . io_addr [6:0] $end
   $var wire  1 0 io_scl $end
   $var wire  1 / io_sda $end
   $var wire 32 - io_wdata [31:0] $end
   $var wire  1 , reset $end
   $scope module i2c $end
    $var wire  1 + clock $end
    $var wire 15 ) count [14:0] $end
    $var wire  1 * i2c_scl_enable $end
    $var wire  7 $ io_addr [6:0] $end
    $var wire  8 % io_data [7:0] $end
    $var wire  1 ' io_data_ack $end
    $var wire  1 2 io_i2c_scl $end
    $var wire  1 1 io_i2c_sda $end
    $var wire  1 & io_read_write $end
    $var wire  1 # io_start $end
    $var wire  1 , reset $end
    $var wire  8 ( state [7:0] $end
   $upscope $end
  $upscope $end
 $upscope $end
$enddefinitions $end


#0
0#
b0000000 $
b00000000 %
0&
0'
b00000000 (
b000000000000000 )
0*
0+
1,
b00000000000000000000000000000000 -
b0000000 .
1/
10
11
12
#1
1*
1+
00
02
#2
0+
0,
10
12
#3
0*
1+
#4
0+
b00000000000000000000000000000001 -
#5
1#
1+
#6
0+
b0000100 .
#7
b0000001 $
b00000001 (
1+
0/
01
#8
0+
b00000000000000000000000001100011 -
#9
b1100011 $
b00000010 (
b000000000000110 )
1+
1/
11
#10
0+
b0001000 .
#11
1&
b000000000000101 )
1*
1+
00
02
#12
0+
b00000000000000000000000000000000 -
10
12
#13
0&
b000000000000100 )
1+
0/
00
01
02
#14
0+
b0001100 .
10
12
#15
b000000000000011 )
1+
00
02
#16
0+
10
12
#17
b000000000000010 )
1+
00
02
#18
0+
b0010000 .
10
12
#19
b000000000000001 )
1+
1/
00
11
02
#20
0+
b00000000000000000000000010000111 -
10
12
#21
b10000111 %
b000000000000000 )
1+
00
02
#22
0+
b0010100 .
10
12
#23
1'
b00000011 (
1+
0/
00
01
02
#24
0+
b00000000000000000000000000000000 -
10
12
#25
0'
b00000100 (
b000000000001000 )
1+
00
02
#26
0+
10
12
#27
b000000000000111 )
1+
1/
00
11
02
#28
0+
10
12
#29
b000000000000110 )
1+
0/
00
01
02
#30
0+
10
12
#31
b000000000000101 )
1+
00
02
#32
0+
10
12
#33
b000000000000100 )
1+
00
02
#34
0+
10
12
#35
b000000000000011 )
1+
00
02
#36
0+
10
12
#37
b000000000000010 )
1+
1/
00
11
02
#38
0+
10
12
#39
b000000000000001 )
1+
00
02
#40
0+
10
12
#41
b000000000000000 )
1+
00
02
#42
0+
10
12
#43
b00000101 (
1+
0/
00
01
02
#44
0+
10
12
#45
b00000110 (
1+
1/
00
11
02
#46
0+
10
12
#47
b00000000 (
0*
1+
#48
0+
#49
b00000001 (
1+
0/
01
#50
0+
#51
b00000010 (
b000000000000110 )
1+
1/
11
#52
0+
#53
b000000000000101 )
1*
1+
00
02
#54
0+
10
12
#55
b000000000000100 )
1+
0/
00
01
02
#56
0+
10
12
#57
b000000000000011 )
1+
00
02
#58
0+
10
12
#59
b000000000000010 )
1+
00
02
#60
0+
10
12
#61
b000000000000001 )
1+
1/
00
11
02
#62
0+
10
12
#63
b000000000000000 )
1+
00
02
#64
0+
10
12
#65
b00000011 (
1+
0/
00
01
02
#66
0+
10
12
#67
b00000100 (
b000000000001000 )
1+
00
02
#68
0+
10
12
#69
b000000000000111 )
1+
1/
00
11
02
#70
0+
10
12
#71
b000000000000110 )
1+
0/
00
01
02
#72
0+
10
12
#73
b000000000000101 )
1+
00
02
#74
0+
10
12
#75
b000000000000100 )
1+
00
02
#76
0+
10
12
#77
b000000000000011 )
1+
00
02
#78
0+
10
12
#79
b000000000000010 )
1+
1/
00
11
02
#80
0+
10
12
#81
b000000000000001 )
1+
00
02
#82
0+
10
12
#83
b000000000000000 )
1+
00
02
#84
0+
10
12
#85
b00000101 (
1+
0/
00
01
02
#86
0+
10
12
#87
b00000110 (
1+
1/
00
11
02
#88
0+
10
12
#89
b00000000 (
0*
1+
#90
0+
#91
b00000001 (
1+
0/
01
#92
0+
#93
b00000010 (
b000000000000110 )
1+
1/
11
#94
0+
#95
b000000000000101 )
1*
1+
00
02
#96
0+
10
12
#97
b000000000000100 )
1+
0/
00
01
02
#98
0+
10
12
#99
b000000000000011 )
1+
00
02
#100
0+
10
12
#101
b000000000000010 )
1+
00
02
#102
0+
10
12
#103
b000000000000001 )
1+
1/
00
11
02
#104
0+
10
12
#105
b000000000000000 )
1+
00
02
#106
0+
10
12
#107
b00000011 (
1+
0/
00
01
02
#108
0+
10
12
#109
b00000100 (
b000000000001000 )
1+
00
02
#110
0+
10
12
#111
b000000000000111 )
1+
1/
00
11
02
#112
0+
10
12
#113
b000000000000110 )
1+
0/
00
01
02
#114
0+
10
12
#115
b000000000000101 )
1+
00
02
#116
0+
10
12
#117
b000000000000100 )
1+
00
02
#118
0+
10
12
#119
b000000000000011 )
1+
00
02
#120
0+
10
12
#121
b000000000000010 )
1+
1/
00
11
02
#122
0+
10
12
#123
b000000000000001 )
1+
00
02
#124
0+
10
12
#125
b000000000000000 )
1+
00
02
#126
0+
b0000000 .
10
12
#127
0#
b00000101 (
1+
0/
00
01
02
